%TF.GenerationSoftware,KiCad,Pcbnew,(5.1.9)-1*%
%TF.CreationDate,2022-02-17T16:54:53+01:00*%
%TF.ProjectId,Ladegeraet,4c616465-6765-4726-9165-742e6b696361,rev?*%
%TF.SameCoordinates,Original*%
%TF.FileFunction,Copper,L1,Top*%
%TF.FilePolarity,Positive*%
%FSLAX46Y46*%
G04 Gerber Fmt 4.6, Leading zero omitted, Abs format (unit mm)*
G04 Created by KiCad (PCBNEW (5.1.9)-1) date 2022-02-17 16:54:53*
%MOMM*%
%LPD*%
G01*
G04 APERTURE LIST*
%TA.AperFunction,ComponentPad*%
%ADD10O,2.200000X1.700000*%
%TD*%
%TA.AperFunction,ComponentPad*%
%ADD11O,2.500000X4.500000*%
%TD*%
%TA.AperFunction,ComponentPad*%
%ADD12R,2.500000X4.500000*%
%TD*%
%TA.AperFunction,ComponentPad*%
%ADD13O,2.800000X2.800000*%
%TD*%
%TA.AperFunction,ComponentPad*%
%ADD14C,2.800000*%
%TD*%
%TA.AperFunction,ComponentPad*%
%ADD15C,6.350000*%
%TD*%
%TA.AperFunction,ComponentPad*%
%ADD16C,2.600000*%
%TD*%
%TA.AperFunction,ComponentPad*%
%ADD17C,0.100000*%
%TD*%
%TA.AperFunction,ViaPad*%
%ADD18C,0.800000*%
%TD*%
%TA.AperFunction,Conductor*%
%ADD19C,1.900000*%
%TD*%
%TA.AperFunction,Conductor*%
%ADD20C,1.000000*%
%TD*%
%TA.AperFunction,Conductor*%
%ADD21C,0.600000*%
%TD*%
%TA.AperFunction,Conductor*%
%ADD22C,2.000000*%
%TD*%
%TA.AperFunction,Conductor*%
%ADD23C,0.254000*%
%TD*%
%TA.AperFunction,Conductor*%
%ADD24C,0.100000*%
%TD*%
G04 APERTURE END LIST*
%TO.P,C4,2*%
%TO.N,GND*%
%TA.AperFunction,SMDPad,CuDef*%
G36*
G01*
X76250000Y-95500000D02*
X77350000Y-95500000D01*
G75*
G02*
X77600000Y-95750000I0J-250000D01*
G01*
X77600000Y-98250000D01*
G75*
G02*
X77350000Y-98500000I-250000J0D01*
G01*
X76250000Y-98500000D01*
G75*
G02*
X76000000Y-98250000I0J250000D01*
G01*
X76000000Y-95750000D01*
G75*
G02*
X76250000Y-95500000I250000J0D01*
G01*
G37*
%TD.AperFunction*%
%TO.P,C4,1*%
%TO.N,Net-(C4-Pad1)*%
%TA.AperFunction,SMDPad,CuDef*%
G36*
G01*
X76250000Y-91100000D02*
X77350000Y-91100000D01*
G75*
G02*
X77600000Y-91350000I0J-250000D01*
G01*
X77600000Y-93850000D01*
G75*
G02*
X77350000Y-94100000I-250000J0D01*
G01*
X76250000Y-94100000D01*
G75*
G02*
X76000000Y-93850000I0J250000D01*
G01*
X76000000Y-91350000D01*
G75*
G02*
X76250000Y-91100000I250000J0D01*
G01*
G37*
%TD.AperFunction*%
%TD*%
%TO.P,C3,2*%
%TO.N,GND*%
%TA.AperFunction,SMDPad,CuDef*%
G36*
G01*
X79550000Y-49500000D02*
X78450000Y-49500000D01*
G75*
G02*
X78200000Y-49250000I0J250000D01*
G01*
X78200000Y-46750000D01*
G75*
G02*
X78450000Y-46500000I250000J0D01*
G01*
X79550000Y-46500000D01*
G75*
G02*
X79800000Y-46750000I0J-250000D01*
G01*
X79800000Y-49250000D01*
G75*
G02*
X79550000Y-49500000I-250000J0D01*
G01*
G37*
%TD.AperFunction*%
%TO.P,C3,1*%
%TO.N,V15*%
%TA.AperFunction,SMDPad,CuDef*%
G36*
G01*
X79550000Y-53900000D02*
X78450000Y-53900000D01*
G75*
G02*
X78200000Y-53650000I0J250000D01*
G01*
X78200000Y-51150000D01*
G75*
G02*
X78450000Y-50900000I250000J0D01*
G01*
X79550000Y-50900000D01*
G75*
G02*
X79800000Y-51150000I0J-250000D01*
G01*
X79800000Y-53650000D01*
G75*
G02*
X79550000Y-53900000I-250000J0D01*
G01*
G37*
%TD.AperFunction*%
%TD*%
%TO.P,R2,2*%
%TO.N,GND*%
%TA.AperFunction,SMDPad,CuDef*%
G36*
G01*
X124050000Y-94625000D02*
X124050000Y-93375000D01*
G75*
G02*
X124300000Y-93125000I250000J0D01*
G01*
X125100000Y-93125000D01*
G75*
G02*
X125350000Y-93375000I0J-250000D01*
G01*
X125350000Y-94625000D01*
G75*
G02*
X125100000Y-94875000I-250000J0D01*
G01*
X124300000Y-94875000D01*
G75*
G02*
X124050000Y-94625000I0J250000D01*
G01*
G37*
%TD.AperFunction*%
%TO.P,R2,1*%
%TO.N,Net-(C2-Pad1)*%
%TA.AperFunction,SMDPad,CuDef*%
G36*
G01*
X120950000Y-94625000D02*
X120950000Y-93375000D01*
G75*
G02*
X121200000Y-93125000I250000J0D01*
G01*
X122000000Y-93125000D01*
G75*
G02*
X122250000Y-93375000I0J-250000D01*
G01*
X122250000Y-94625000D01*
G75*
G02*
X122000000Y-94875000I-250000J0D01*
G01*
X121200000Y-94875000D01*
G75*
G02*
X120950000Y-94625000I0J250000D01*
G01*
G37*
%TD.AperFunction*%
%TD*%
%TO.P,R1,2*%
%TO.N,Net-(C2-Pad1)*%
%TA.AperFunction,SMDPad,CuDef*%
G36*
G01*
X117946340Y-94625000D02*
X117946340Y-93375000D01*
G75*
G02*
X118196340Y-93125000I250000J0D01*
G01*
X118996340Y-93125000D01*
G75*
G02*
X119246340Y-93375000I0J-250000D01*
G01*
X119246340Y-94625000D01*
G75*
G02*
X118996340Y-94875000I-250000J0D01*
G01*
X118196340Y-94875000D01*
G75*
G02*
X117946340Y-94625000I0J250000D01*
G01*
G37*
%TD.AperFunction*%
%TO.P,R1,1*%
%TO.N,Net-(C4-Pad1)*%
%TA.AperFunction,SMDPad,CuDef*%
G36*
G01*
X114846340Y-94625000D02*
X114846340Y-93375000D01*
G75*
G02*
X115096340Y-93125000I250000J0D01*
G01*
X115896340Y-93125000D01*
G75*
G02*
X116146340Y-93375000I0J-250000D01*
G01*
X116146340Y-94625000D01*
G75*
G02*
X115896340Y-94875000I-250000J0D01*
G01*
X115096340Y-94875000D01*
G75*
G02*
X114846340Y-94625000I0J250000D01*
G01*
G37*
%TD.AperFunction*%
%TD*%
%TO.P,C1,2*%
%TO.N,GND*%
%TA.AperFunction,SMDPad,CuDef*%
G36*
G01*
X75737500Y-58149999D02*
X75737500Y-59450001D01*
G75*
G02*
X75487501Y-59700000I-249999J0D01*
G01*
X74662499Y-59700000D01*
G75*
G02*
X74412500Y-59450001I0J249999D01*
G01*
X74412500Y-58149999D01*
G75*
G02*
X74662499Y-57900000I249999J0D01*
G01*
X75487501Y-57900000D01*
G75*
G02*
X75737500Y-58149999I0J-249999D01*
G01*
G37*
%TD.AperFunction*%
%TO.P,C1,1*%
%TO.N,V15*%
%TA.AperFunction,SMDPad,CuDef*%
G36*
G01*
X78862500Y-58149999D02*
X78862500Y-59450001D01*
G75*
G02*
X78612501Y-59700000I-249999J0D01*
G01*
X77787499Y-59700000D01*
G75*
G02*
X77537500Y-59450001I0J249999D01*
G01*
X77537500Y-58149999D01*
G75*
G02*
X77787499Y-57900000I249999J0D01*
G01*
X78612501Y-57900000D01*
G75*
G02*
X78862500Y-58149999I0J-249999D01*
G01*
G37*
%TD.AperFunction*%
%TD*%
%TO.P,C2,2*%
%TO.N,GND*%
%TA.AperFunction,SMDPad,CuDef*%
G36*
G01*
X116171340Y-88730059D02*
X116171340Y-90030061D01*
G75*
G02*
X115921341Y-90280060I-249999J0D01*
G01*
X115096339Y-90280060D01*
G75*
G02*
X114846340Y-90030061I0J249999D01*
G01*
X114846340Y-88730059D01*
G75*
G02*
X115096339Y-88480060I249999J0D01*
G01*
X115921341Y-88480060D01*
G75*
G02*
X116171340Y-88730059I0J-249999D01*
G01*
G37*
%TD.AperFunction*%
%TO.P,C2,1*%
%TO.N,Net-(C2-Pad1)*%
%TA.AperFunction,SMDPad,CuDef*%
G36*
G01*
X119296340Y-88730059D02*
X119296340Y-90030061D01*
G75*
G02*
X119046341Y-90280060I-249999J0D01*
G01*
X118221339Y-90280060D01*
G75*
G02*
X117971340Y-90030061I0J249999D01*
G01*
X117971340Y-88730059D01*
G75*
G02*
X118221339Y-88480060I249999J0D01*
G01*
X119046341Y-88480060D01*
G75*
G02*
X119296340Y-88730059I0J-249999D01*
G01*
G37*
%TD.AperFunction*%
%TD*%
D10*
%TO.P,J3,2*%
%TO.N,GND*%
X135168640Y-93350720D03*
%TO.P,J3,1*%
%TO.N,VOut*%
%TA.AperFunction,ComponentPad*%
G36*
G01*
X134068640Y-91450720D02*
X134068640Y-90250720D01*
G75*
G02*
X134318640Y-90000720I250000J0D01*
G01*
X136018640Y-90000720D01*
G75*
G02*
X136268640Y-90250720I0J-250000D01*
G01*
X136268640Y-91450720D01*
G75*
G02*
X136018640Y-91700720I-250000J0D01*
G01*
X134318640Y-91700720D01*
G75*
G02*
X134068640Y-91450720I0J250000D01*
G01*
G37*
%TD.AperFunction*%
%TD*%
%TO.P,J2,2*%
%TO.N,GND*%
X70800000Y-81100000D03*
%TO.P,J2,1*%
%TO.N,Net-(C4-Pad1)*%
%TA.AperFunction,ComponentPad*%
G36*
G01*
X71900000Y-83000000D02*
X71900000Y-84200000D01*
G75*
G02*
X71650000Y-84450000I-250000J0D01*
G01*
X69950000Y-84450000D01*
G75*
G02*
X69700000Y-84200000I0J250000D01*
G01*
X69700000Y-83000000D01*
G75*
G02*
X69950000Y-82750000I250000J0D01*
G01*
X71650000Y-82750000D01*
G75*
G02*
X71900000Y-83000000I0J-250000D01*
G01*
G37*
%TD.AperFunction*%
%TD*%
%TO.P,J1,2*%
%TO.N,GND*%
X70723760Y-50593620D03*
%TO.P,J1,1*%
%TO.N,V15*%
%TA.AperFunction,ComponentPad*%
G36*
G01*
X71823760Y-52493620D02*
X71823760Y-53693620D01*
G75*
G02*
X71573760Y-53943620I-250000J0D01*
G01*
X69873760Y-53943620D01*
G75*
G02*
X69623760Y-53693620I0J250000D01*
G01*
X69623760Y-52493620D01*
G75*
G02*
X69873760Y-52243620I250000J0D01*
G01*
X71573760Y-52243620D01*
G75*
G02*
X71823760Y-52493620I0J-250000D01*
G01*
G37*
%TD.AperFunction*%
%TD*%
D11*
%TO.P,D1,3*%
%TO.N,Net-(C4-Pad1)*%
X68007640Y-68856860D03*
%TO.P,D1,2*%
%TO.N,VOut*%
X73457640Y-68856860D03*
D12*
%TO.P,D1,1*%
%TO.N,V15*%
X78907640Y-68856860D03*
%TD*%
D13*
%TO.P,R3,2*%
%TO.N,Net-(R3-Pad2)*%
X102816660Y-92519500D03*
D14*
%TO.P,R3,1*%
%TO.N,Net-(C4-Pad1)*%
X82496660Y-92519500D03*
%TD*%
D15*
%TO.P,U1,3*%
%TO.N,Net-(R3-Pad2)*%
X102697323Y-72978133D03*
X124051948Y-51623508D03*
D16*
%TO.P,U1,2*%
%TO.N,V15*%
X110779554Y-57160154D03*
%TA.AperFunction,ComponentPad*%
D17*
%TO.P,U1,1*%
%TO.N,Net-(C2-Pad1)*%
G36*
X118501160Y-63043282D02*
G01*
X120339638Y-64881760D01*
X118501160Y-66720238D01*
X116662682Y-64881760D01*
X118501160Y-63043282D01*
G37*
%TD.AperFunction*%
%TD*%
D18*
%TO.N,V15*%
X79084800Y-53197760D03*
%TO.N,GND*%
X143002000Y-70380860D03*
X142920720Y-40304720D03*
X77000000Y-97200000D03*
X62242700Y-40919400D03*
X86664800Y-41099740D03*
X87114380Y-85257640D03*
X62151260Y-101747320D03*
X144426940Y-101566980D03*
X92522040Y-101838760D03*
%TO.N,Net-(C4-Pad1)*%
X115496340Y-93985062D03*
%TD*%
D19*
%TO.N,V15*%
X79042260Y-68719700D02*
X78900020Y-68861940D01*
D20*
X70723760Y-53093620D02*
X70733920Y-53103780D01*
D19*
X79000000Y-68764500D02*
X78907640Y-68856860D01*
X79000000Y-52400000D02*
X79000000Y-68764500D01*
X78306380Y-53093620D02*
X79000000Y-52400000D01*
X70723760Y-53093620D02*
X78306380Y-53093620D01*
D20*
%TO.N,Net-(C2-Pad1)*%
X118628160Y-65377060D02*
X118394480Y-65143380D01*
D21*
X118596340Y-93985080D02*
X121352980Y-93985080D01*
X118600000Y-93981420D02*
X118596340Y-93985080D01*
X118600000Y-89551760D02*
X118600000Y-93981420D01*
D20*
X118633840Y-89511194D02*
X118501160Y-89643874D01*
X118633840Y-65014440D02*
X118633840Y-89511194D01*
X118501160Y-64881760D02*
X118633840Y-65014440D01*
D19*
%TO.N,Net-(C4-Pad1)*%
X67939920Y-68922040D02*
X68000020Y-68861940D01*
X66070002Y-70794498D02*
X68007640Y-68856860D01*
X67000000Y-92200000D02*
X66070002Y-91270002D01*
D20*
X77080500Y-92519500D02*
X77000000Y-92600000D01*
D19*
X82496660Y-92519500D02*
X77080500Y-92519500D01*
X72460000Y-92600000D02*
X77000000Y-92600000D01*
X67400000Y-92600000D02*
X72460000Y-92600000D01*
D20*
X67000000Y-92200000D02*
X67400000Y-92600000D01*
D19*
X66400000Y-83600000D02*
X66070002Y-83929998D01*
X70800000Y-83600000D02*
X66400000Y-83600000D01*
X66070002Y-83929998D02*
X66070002Y-70794498D01*
X66070002Y-91270002D02*
X66070002Y-83929998D01*
D22*
%TO.N,VOut*%
X135168640Y-90850720D02*
X134470140Y-90850720D01*
X73457640Y-76851080D02*
X73457640Y-68856860D01*
X94449900Y-97843340D02*
X73457640Y-76851080D01*
X126448820Y-97843340D02*
X94449900Y-97843340D01*
X127647700Y-96644460D02*
X126448820Y-97843340D01*
X127647700Y-93619320D02*
X127647700Y-96644460D01*
X130416300Y-90850720D02*
X127647700Y-93619320D01*
X135168640Y-90850720D02*
X130416300Y-90850720D01*
D20*
%TO.N,Net-(R3-Pad2)*%
X102641400Y-75106696D02*
X102758240Y-75223536D01*
X102697323Y-92468743D02*
X102758240Y-92529660D01*
D22*
X102697323Y-72978133D02*
X102697323Y-92468743D01*
%TD*%
D23*
%TO.N,GND*%
X88590120Y-87553674D02*
X88592536Y-87578453D01*
X88599739Y-87602285D01*
X88611454Y-87624253D01*
X88627229Y-87643514D01*
X88646458Y-87659327D01*
X88668403Y-87671085D01*
X88692220Y-87678335D01*
X88717120Y-87680800D01*
X101062324Y-87680800D01*
X101062324Y-91482147D01*
X101013267Y-91555566D01*
X100859864Y-91925913D01*
X100781660Y-92319070D01*
X100781660Y-92719930D01*
X100859864Y-93113087D01*
X101013267Y-93483434D01*
X101235973Y-93816737D01*
X101519423Y-94100187D01*
X101852726Y-94322893D01*
X102223073Y-94476296D01*
X102616230Y-94554500D01*
X103017090Y-94554500D01*
X103410247Y-94476296D01*
X103780594Y-94322893D01*
X104113897Y-94100187D01*
X104397347Y-93816737D01*
X104620053Y-93483434D01*
X104664967Y-93375000D01*
X114208268Y-93375000D01*
X114208268Y-94625000D01*
X114225332Y-94798254D01*
X114275868Y-94964850D01*
X114357935Y-95118386D01*
X114468378Y-95252962D01*
X114602954Y-95363405D01*
X114756490Y-95445472D01*
X114923086Y-95496008D01*
X115096340Y-95513072D01*
X115896340Y-95513072D01*
X116069594Y-95496008D01*
X116236190Y-95445472D01*
X116389726Y-95363405D01*
X116524302Y-95252962D01*
X116634745Y-95118386D01*
X116716812Y-94964850D01*
X116767348Y-94798254D01*
X116784412Y-94625000D01*
X116784412Y-93375000D01*
X116767348Y-93201746D01*
X116716812Y-93035150D01*
X116634745Y-92881614D01*
X116524302Y-92747038D01*
X116389726Y-92636595D01*
X116236190Y-92554528D01*
X116069594Y-92503992D01*
X115896340Y-92486928D01*
X115096340Y-92486928D01*
X114923086Y-92503992D01*
X114756490Y-92554528D01*
X114602954Y-92636595D01*
X114468378Y-92747038D01*
X114357935Y-92881614D01*
X114275868Y-93035150D01*
X114225332Y-93201746D01*
X114208268Y-93375000D01*
X104664967Y-93375000D01*
X104773456Y-93113087D01*
X104851660Y-92719930D01*
X104851660Y-92319070D01*
X104773456Y-91925913D01*
X104620053Y-91555566D01*
X104397347Y-91222263D01*
X104332323Y-91157239D01*
X104332323Y-90280060D01*
X114208268Y-90280060D01*
X114220528Y-90404542D01*
X114256838Y-90524240D01*
X114315803Y-90634554D01*
X114395155Y-90731245D01*
X114491846Y-90810597D01*
X114602160Y-90869562D01*
X114721858Y-90905872D01*
X114846340Y-90918132D01*
X115223090Y-90915060D01*
X115381840Y-90756310D01*
X115381840Y-89507060D01*
X115635840Y-89507060D01*
X115635840Y-90756310D01*
X115794590Y-90915060D01*
X116171340Y-90918132D01*
X116295822Y-90905872D01*
X116415520Y-90869562D01*
X116525834Y-90810597D01*
X116622525Y-90731245D01*
X116701877Y-90634554D01*
X116760842Y-90524240D01*
X116797152Y-90404542D01*
X116809412Y-90280060D01*
X116806340Y-89665810D01*
X116647590Y-89507060D01*
X115635840Y-89507060D01*
X115381840Y-89507060D01*
X114370090Y-89507060D01*
X114211340Y-89665810D01*
X114208268Y-90280060D01*
X104332323Y-90280060D01*
X104332323Y-88480060D01*
X114208268Y-88480060D01*
X114211340Y-89094310D01*
X114370090Y-89253060D01*
X115381840Y-89253060D01*
X115381840Y-88003810D01*
X115635840Y-88003810D01*
X115635840Y-89253060D01*
X116647590Y-89253060D01*
X116806340Y-89094310D01*
X116809412Y-88480060D01*
X116797152Y-88355578D01*
X116760842Y-88235880D01*
X116701877Y-88125566D01*
X116622525Y-88028875D01*
X116525834Y-87949523D01*
X116415520Y-87890558D01*
X116295822Y-87854248D01*
X116171340Y-87841988D01*
X115794590Y-87845060D01*
X115635840Y-88003810D01*
X115381840Y-88003810D01*
X115223090Y-87845060D01*
X114846340Y-87841988D01*
X114721858Y-87854248D01*
X114602160Y-87890558D01*
X114491846Y-87949523D01*
X114395155Y-88028875D01*
X114315803Y-88125566D01*
X114256838Y-88235880D01*
X114220528Y-88355578D01*
X114208268Y-88480060D01*
X104332323Y-88480060D01*
X104332323Y-87680800D01*
X117498841Y-87680800D01*
X117498841Y-88217292D01*
X117482935Y-88236673D01*
X117400868Y-88390209D01*
X117350332Y-88556805D01*
X117333268Y-88730059D01*
X117333268Y-90030061D01*
X117350332Y-90203315D01*
X117400868Y-90369911D01*
X117482935Y-90523447D01*
X117593378Y-90658022D01*
X117665000Y-90716801D01*
X117665001Y-92667742D01*
X117568378Y-92747038D01*
X117457935Y-92881614D01*
X117375868Y-93035150D01*
X117325332Y-93201746D01*
X117308268Y-93375000D01*
X117308268Y-94625000D01*
X117325332Y-94798254D01*
X117375868Y-94964850D01*
X117457935Y-95118386D01*
X117568378Y-95252962D01*
X117702954Y-95363405D01*
X117856490Y-95445472D01*
X118023086Y-95496008D01*
X118196340Y-95513072D01*
X118996340Y-95513072D01*
X119169594Y-95496008D01*
X119336190Y-95445472D01*
X119489726Y-95363405D01*
X119624302Y-95252962D01*
X119734745Y-95118386D01*
X119816812Y-94964850D01*
X119830393Y-94920080D01*
X120365947Y-94920080D01*
X120379528Y-94964850D01*
X120461595Y-95118386D01*
X120572038Y-95252962D01*
X120706614Y-95363405D01*
X120860150Y-95445472D01*
X121026746Y-95496008D01*
X121200000Y-95513072D01*
X122000000Y-95513072D01*
X122173254Y-95496008D01*
X122339850Y-95445472D01*
X122493386Y-95363405D01*
X122627962Y-95252962D01*
X122738405Y-95118386D01*
X122820472Y-94964850D01*
X122847727Y-94875000D01*
X123411928Y-94875000D01*
X123424188Y-94999482D01*
X123460498Y-95119180D01*
X123519463Y-95229494D01*
X123598815Y-95326185D01*
X123695506Y-95405537D01*
X123805820Y-95464502D01*
X123925518Y-95500812D01*
X124050000Y-95513072D01*
X124414250Y-95510000D01*
X124573000Y-95351250D01*
X124573000Y-94127000D01*
X124827000Y-94127000D01*
X124827000Y-95351250D01*
X124985750Y-95510000D01*
X125350000Y-95513072D01*
X125474482Y-95500812D01*
X125594180Y-95464502D01*
X125704494Y-95405537D01*
X125801185Y-95326185D01*
X125880537Y-95229494D01*
X125939502Y-95119180D01*
X125975812Y-94999482D01*
X125988072Y-94875000D01*
X125985000Y-94285750D01*
X125826250Y-94127000D01*
X124827000Y-94127000D01*
X124573000Y-94127000D01*
X123573750Y-94127000D01*
X123415000Y-94285750D01*
X123411928Y-94875000D01*
X122847727Y-94875000D01*
X122871008Y-94798254D01*
X122888072Y-94625000D01*
X122888072Y-93375000D01*
X122871008Y-93201746D01*
X122847728Y-93125000D01*
X123411928Y-93125000D01*
X123415000Y-93714250D01*
X123573750Y-93873000D01*
X124573000Y-93873000D01*
X124573000Y-92648750D01*
X124827000Y-92648750D01*
X124827000Y-93873000D01*
X125826250Y-93873000D01*
X125985000Y-93714250D01*
X125988072Y-93125000D01*
X125975812Y-93000518D01*
X125939502Y-92880820D01*
X125880537Y-92770506D01*
X125801185Y-92673815D01*
X125704494Y-92594463D01*
X125594180Y-92535498D01*
X125474482Y-92499188D01*
X125350000Y-92486928D01*
X124985750Y-92490000D01*
X124827000Y-92648750D01*
X124573000Y-92648750D01*
X124414250Y-92490000D01*
X124050000Y-92486928D01*
X123925518Y-92499188D01*
X123805820Y-92535498D01*
X123695506Y-92594463D01*
X123598815Y-92673815D01*
X123519463Y-92770506D01*
X123460498Y-92880820D01*
X123424188Y-93000518D01*
X123411928Y-93125000D01*
X122847728Y-93125000D01*
X122820472Y-93035150D01*
X122738405Y-92881614D01*
X122627962Y-92747038D01*
X122493386Y-92636595D01*
X122339850Y-92554528D01*
X122173254Y-92503992D01*
X122000000Y-92486928D01*
X121200000Y-92486928D01*
X121026746Y-92503992D01*
X120860150Y-92554528D01*
X120706614Y-92636595D01*
X120572038Y-92747038D01*
X120461595Y-92881614D01*
X120379528Y-93035150D01*
X120374999Y-93050080D01*
X119821341Y-93050080D01*
X119816812Y-93035150D01*
X119734745Y-92881614D01*
X119624302Y-92747038D01*
X119535000Y-92673750D01*
X119535000Y-90770992D01*
X119539727Y-90768465D01*
X119674302Y-90658022D01*
X119784745Y-90523447D01*
X119866812Y-90369911D01*
X119917348Y-90203315D01*
X119934412Y-90030061D01*
X119934412Y-88730059D01*
X119917348Y-88556805D01*
X119866812Y-88390209D01*
X119784745Y-88236673D01*
X119768840Y-88217293D01*
X119768840Y-87680800D01*
X138000000Y-87680800D01*
X138024776Y-87678360D01*
X138048601Y-87671133D01*
X138070557Y-87659397D01*
X138089803Y-87643603D01*
X138105597Y-87624357D01*
X138117333Y-87602401D01*
X138124560Y-87578576D01*
X138126999Y-87554293D01*
X138315699Y-38903133D01*
X138313355Y-38878347D01*
X138306220Y-38854495D01*
X138305947Y-38853980D01*
X145574277Y-38853980D01*
X145711181Y-103467300D01*
X60521323Y-103467300D01*
X60510799Y-98500000D01*
X75361928Y-98500000D01*
X75374188Y-98624482D01*
X75410498Y-98744180D01*
X75469463Y-98854494D01*
X75548815Y-98951185D01*
X75645506Y-99030537D01*
X75755820Y-99089502D01*
X75875518Y-99125812D01*
X76000000Y-99138072D01*
X76514250Y-99135000D01*
X76673000Y-98976250D01*
X76673000Y-97127000D01*
X76927000Y-97127000D01*
X76927000Y-98976250D01*
X77085750Y-99135000D01*
X77600000Y-99138072D01*
X77724482Y-99125812D01*
X77844180Y-99089502D01*
X77954494Y-99030537D01*
X78051185Y-98951185D01*
X78130537Y-98854494D01*
X78189502Y-98744180D01*
X78225812Y-98624482D01*
X78238072Y-98500000D01*
X78235000Y-97285750D01*
X78076250Y-97127000D01*
X76927000Y-97127000D01*
X76673000Y-97127000D01*
X75523750Y-97127000D01*
X75365000Y-97285750D01*
X75361928Y-98500000D01*
X60510799Y-98500000D01*
X60504443Y-95500000D01*
X75361928Y-95500000D01*
X75365000Y-96714250D01*
X75523750Y-96873000D01*
X76673000Y-96873000D01*
X76673000Y-95023750D01*
X76927000Y-95023750D01*
X76927000Y-96873000D01*
X78076250Y-96873000D01*
X78235000Y-96714250D01*
X78238072Y-95500000D01*
X78225812Y-95375518D01*
X78189502Y-95255820D01*
X78130537Y-95145506D01*
X78051185Y-95048815D01*
X77954494Y-94969463D01*
X77844180Y-94910498D01*
X77724482Y-94874188D01*
X77600000Y-94861928D01*
X77085750Y-94865000D01*
X76927000Y-95023750D01*
X76673000Y-95023750D01*
X76514250Y-94865000D01*
X76000000Y-94861928D01*
X75875518Y-94874188D01*
X75755820Y-94910498D01*
X75645506Y-94969463D01*
X75548815Y-95048815D01*
X75469463Y-95145506D01*
X75410498Y-95255820D01*
X75374188Y-95375518D01*
X75361928Y-95500000D01*
X60504443Y-95500000D01*
X60473622Y-80953740D01*
X62135000Y-80953740D01*
X62135000Y-81246260D01*
X62192068Y-81533158D01*
X62304010Y-81803411D01*
X62466525Y-82046632D01*
X62673368Y-82253475D01*
X62817828Y-82350000D01*
X62673368Y-82446525D01*
X62466525Y-82653368D01*
X62304010Y-82896589D01*
X62192068Y-83166842D01*
X62135000Y-83453740D01*
X62135000Y-83746260D01*
X62192068Y-84033158D01*
X62304010Y-84303411D01*
X62466525Y-84546632D01*
X62673368Y-84753475D01*
X62916589Y-84915990D01*
X63186842Y-85027932D01*
X63473740Y-85085000D01*
X63766260Y-85085000D01*
X64053158Y-85027932D01*
X64323411Y-84915990D01*
X64485003Y-84808018D01*
X64485002Y-91192146D01*
X64477334Y-91270002D01*
X64485002Y-91347858D01*
X64485002Y-91347865D01*
X64496620Y-91465825D01*
X64507936Y-91580716D01*
X64564298Y-91766517D01*
X64598568Y-91879489D01*
X64745746Y-92154840D01*
X64943815Y-92396189D01*
X65004299Y-92445827D01*
X65934295Y-93375822D01*
X66093511Y-93506488D01*
X66273813Y-93726187D01*
X66515161Y-93924256D01*
X66790512Y-94071434D01*
X67089286Y-94162066D01*
X67322136Y-94185000D01*
X75428057Y-94185000D01*
X75429528Y-94189850D01*
X75511595Y-94343386D01*
X75622038Y-94477962D01*
X75756614Y-94588405D01*
X75910150Y-94670472D01*
X76076746Y-94721008D01*
X76250000Y-94738072D01*
X77350000Y-94738072D01*
X77523254Y-94721008D01*
X77689850Y-94670472D01*
X77843386Y-94588405D01*
X77977962Y-94477962D01*
X78088405Y-94343386D01*
X78170472Y-94189850D01*
X78196362Y-94104500D01*
X81205878Y-94104500D01*
X81532726Y-94322893D01*
X81903073Y-94476296D01*
X82296230Y-94554500D01*
X82697090Y-94554500D01*
X83090247Y-94476296D01*
X83460594Y-94322893D01*
X83793897Y-94100187D01*
X84077347Y-93816737D01*
X84300053Y-93483434D01*
X84453456Y-93113087D01*
X84531660Y-92719930D01*
X84531660Y-92319070D01*
X84453456Y-91925913D01*
X84300053Y-91555566D01*
X84077347Y-91222263D01*
X83793897Y-90938813D01*
X83460594Y-90716107D01*
X83090247Y-90562704D01*
X82697090Y-90484500D01*
X82296230Y-90484500D01*
X81903073Y-90562704D01*
X81532726Y-90716107D01*
X81205878Y-90934500D01*
X78130036Y-90934500D01*
X78088405Y-90856614D01*
X77977962Y-90722038D01*
X77843386Y-90611595D01*
X77689850Y-90529528D01*
X77523254Y-90478992D01*
X77350000Y-90461928D01*
X76250000Y-90461928D01*
X76076746Y-90478992D01*
X75910150Y-90529528D01*
X75756614Y-90611595D01*
X75622038Y-90722038D01*
X75511595Y-90856614D01*
X75429528Y-91010150D01*
X75428057Y-91015000D01*
X68056527Y-91015000D01*
X67655002Y-90613474D01*
X67655002Y-85185000D01*
X70877864Y-85185000D01*
X71110714Y-85162066D01*
X71354640Y-85088072D01*
X71650000Y-85088072D01*
X71823254Y-85071008D01*
X71989850Y-85020472D01*
X72143386Y-84938405D01*
X72277962Y-84827962D01*
X72388405Y-84693386D01*
X72470472Y-84539850D01*
X72521008Y-84373254D01*
X72538072Y-84200000D01*
X72538072Y-83000000D01*
X72521008Y-82826746D01*
X72470472Y-82660150D01*
X72388405Y-82506614D01*
X72277962Y-82372038D01*
X72143386Y-82261595D01*
X72043956Y-82208448D01*
X72183337Y-82075454D01*
X72351862Y-81835608D01*
X72470357Y-81567493D01*
X72491476Y-81456890D01*
X72370155Y-81227000D01*
X70927000Y-81227000D01*
X70927000Y-81247000D01*
X70673000Y-81247000D01*
X70673000Y-81227000D01*
X69229845Y-81227000D01*
X69108524Y-81456890D01*
X69129643Y-81567493D01*
X69248138Y-81835608D01*
X69374186Y-82015000D01*
X67655002Y-82015000D01*
X67655002Y-80743110D01*
X69108524Y-80743110D01*
X69229845Y-80973000D01*
X70673000Y-80973000D01*
X70673000Y-79768504D01*
X70927000Y-79768504D01*
X70927000Y-80973000D01*
X72370155Y-80973000D01*
X72491476Y-80743110D01*
X72470357Y-80632507D01*
X72351862Y-80364392D01*
X72183337Y-80124546D01*
X71971259Y-79922186D01*
X71723777Y-79765089D01*
X71450402Y-79659292D01*
X71161640Y-79608860D01*
X70927000Y-79768504D01*
X70673000Y-79768504D01*
X70438360Y-79608860D01*
X70149598Y-79659292D01*
X69876223Y-79765089D01*
X69628741Y-79922186D01*
X69416663Y-80124546D01*
X69248138Y-80364392D01*
X69129643Y-80632507D01*
X69108524Y-80743110D01*
X67655002Y-80743110D01*
X67655002Y-71716248D01*
X68007640Y-71750980D01*
X68377163Y-71714585D01*
X68732487Y-71606799D01*
X69059957Y-71431763D01*
X69346985Y-71196205D01*
X69582543Y-70909177D01*
X69757579Y-70581708D01*
X69865365Y-70226384D01*
X69892640Y-69949457D01*
X69892640Y-69949456D01*
X71572640Y-69949456D01*
X71599915Y-70226383D01*
X71707701Y-70581707D01*
X71822641Y-70796745D01*
X71822640Y-76770760D01*
X71814729Y-76851080D01*
X71822640Y-76931399D01*
X71822640Y-76931401D01*
X71846297Y-77171595D01*
X71939788Y-77479794D01*
X72091609Y-77763831D01*
X72295926Y-78012794D01*
X72358327Y-78064005D01*
X93236980Y-98942659D01*
X93288186Y-99005054D01*
X93537148Y-99209371D01*
X93821185Y-99361192D01*
X94129383Y-99454683D01*
X94449900Y-99486251D01*
X94530222Y-99478340D01*
X126368501Y-99478340D01*
X126448820Y-99486251D01*
X126529139Y-99478340D01*
X126529142Y-99478340D01*
X126769336Y-99454683D01*
X127077535Y-99361192D01*
X127361572Y-99209371D01*
X127610534Y-99005054D01*
X127661744Y-98942654D01*
X128747018Y-97857381D01*
X128809414Y-97806174D01*
X129013731Y-97557212D01*
X129165552Y-97273175D01*
X129259043Y-96964976D01*
X129282700Y-96724782D01*
X129282700Y-96724780D01*
X129290611Y-96644461D01*
X129282700Y-96564141D01*
X129282700Y-94296558D01*
X129871648Y-93707610D01*
X133477164Y-93707610D01*
X133498283Y-93818213D01*
X133616778Y-94086328D01*
X133785303Y-94326174D01*
X133997381Y-94528534D01*
X134244863Y-94685631D01*
X134518238Y-94791428D01*
X134807000Y-94841860D01*
X135041640Y-94682216D01*
X135041640Y-93477720D01*
X135295640Y-93477720D01*
X135295640Y-94682216D01*
X135530280Y-94841860D01*
X135819042Y-94791428D01*
X136092417Y-94685631D01*
X136339899Y-94528534D01*
X136551977Y-94326174D01*
X136720502Y-94086328D01*
X136838997Y-93818213D01*
X136860116Y-93707610D01*
X136738795Y-93477720D01*
X135295640Y-93477720D01*
X135041640Y-93477720D01*
X133598485Y-93477720D01*
X133477164Y-93707610D01*
X129871648Y-93707610D01*
X131093540Y-92485720D01*
X133707694Y-92485720D01*
X133616778Y-92615112D01*
X133498283Y-92883227D01*
X133477164Y-92993830D01*
X133598485Y-93223720D01*
X135041640Y-93223720D01*
X135041640Y-93203720D01*
X135295640Y-93203720D01*
X135295640Y-93223720D01*
X136738795Y-93223720D01*
X136860116Y-92993830D01*
X136838997Y-92883227D01*
X136720502Y-92615112D01*
X136551977Y-92375266D01*
X136412596Y-92242272D01*
X136512026Y-92189125D01*
X136646602Y-92078682D01*
X136757045Y-91944106D01*
X136839112Y-91790570D01*
X136889648Y-91623974D01*
X136906712Y-91450720D01*
X136906712Y-90704460D01*
X140863640Y-90704460D01*
X140863640Y-90996980D01*
X140920708Y-91283878D01*
X141032650Y-91554131D01*
X141195165Y-91797352D01*
X141402008Y-92004195D01*
X141546468Y-92100720D01*
X141402008Y-92197245D01*
X141195165Y-92404088D01*
X141032650Y-92647309D01*
X140920708Y-92917562D01*
X140863640Y-93204460D01*
X140863640Y-93496980D01*
X140920708Y-93783878D01*
X141032650Y-94054131D01*
X141195165Y-94297352D01*
X141402008Y-94504195D01*
X141645229Y-94666710D01*
X141915482Y-94778652D01*
X142202380Y-94835720D01*
X142494900Y-94835720D01*
X142781798Y-94778652D01*
X143052051Y-94666710D01*
X143295272Y-94504195D01*
X143502115Y-94297352D01*
X143664630Y-94054131D01*
X143776572Y-93783878D01*
X143833640Y-93496980D01*
X143833640Y-93204460D01*
X143776572Y-92917562D01*
X143664630Y-92647309D01*
X143502115Y-92404088D01*
X143295272Y-92197245D01*
X143150812Y-92100720D01*
X143295272Y-92004195D01*
X143502115Y-91797352D01*
X143664630Y-91554131D01*
X143776572Y-91283878D01*
X143833640Y-90996980D01*
X143833640Y-90704460D01*
X143776572Y-90417562D01*
X143664630Y-90147309D01*
X143502115Y-89904088D01*
X143295272Y-89697245D01*
X143052051Y-89534730D01*
X142781798Y-89422788D01*
X142494900Y-89365720D01*
X142202380Y-89365720D01*
X141915482Y-89422788D01*
X141645229Y-89534730D01*
X141402008Y-89697245D01*
X141195165Y-89904088D01*
X141032650Y-90147309D01*
X140920708Y-90417562D01*
X140863640Y-90704460D01*
X136906712Y-90704460D01*
X136906712Y-90250720D01*
X136889648Y-90077466D01*
X136839112Y-89910870D01*
X136757045Y-89757334D01*
X136646602Y-89622758D01*
X136512026Y-89512315D01*
X136358490Y-89430248D01*
X136191894Y-89379712D01*
X136018640Y-89362648D01*
X135853069Y-89362648D01*
X135797355Y-89332868D01*
X135489156Y-89239377D01*
X135248962Y-89215720D01*
X130496622Y-89215720D01*
X130416300Y-89207809D01*
X130095783Y-89239377D01*
X129933204Y-89288695D01*
X129787585Y-89332868D01*
X129503548Y-89484689D01*
X129254586Y-89689006D01*
X129203384Y-89751396D01*
X126548386Y-92406396D01*
X126485986Y-92457606D01*
X126281669Y-92706569D01*
X126129848Y-92990606D01*
X126036357Y-93298805D01*
X126017053Y-93494806D01*
X126004789Y-93619320D01*
X126012700Y-93699640D01*
X126012701Y-95967221D01*
X125771582Y-96208340D01*
X95127139Y-96208340D01*
X75092640Y-76173842D01*
X75092640Y-70796744D01*
X75207579Y-70581708D01*
X75315365Y-70226384D01*
X75342640Y-69949457D01*
X75342640Y-67764263D01*
X75315365Y-67487336D01*
X75207579Y-67132012D01*
X75032543Y-66804543D01*
X74796985Y-66517515D01*
X74509957Y-66281957D01*
X74182488Y-66106921D01*
X73827164Y-65999135D01*
X73457640Y-65962740D01*
X73088117Y-65999135D01*
X72732793Y-66106921D01*
X72405324Y-66281957D01*
X72118296Y-66517515D01*
X71882738Y-66804543D01*
X71707702Y-67132012D01*
X71599916Y-67487336D01*
X71572641Y-67764263D01*
X71572640Y-69949456D01*
X69892640Y-69949456D01*
X69892640Y-67764263D01*
X69865365Y-67487336D01*
X69757579Y-67132012D01*
X69582543Y-66804543D01*
X69346985Y-66517515D01*
X69059957Y-66281957D01*
X68732488Y-66106921D01*
X68377164Y-65999135D01*
X68007640Y-65962740D01*
X67638117Y-65999135D01*
X67282793Y-66106921D01*
X66955324Y-66281957D01*
X66668296Y-66517515D01*
X66432738Y-66804543D01*
X66257702Y-67132012D01*
X66149916Y-67487336D01*
X66122641Y-67764263D01*
X66122641Y-68500331D01*
X65004294Y-69618678D01*
X64943816Y-69668311D01*
X64894183Y-69728789D01*
X64894180Y-69728792D01*
X64745747Y-69909659D01*
X64598568Y-70185011D01*
X64507936Y-70483784D01*
X64477334Y-70794498D01*
X64485003Y-70872364D01*
X64485002Y-79891982D01*
X64323411Y-79784010D01*
X64053158Y-79672068D01*
X63766260Y-79615000D01*
X63473740Y-79615000D01*
X63186842Y-79672068D01*
X62916589Y-79784010D01*
X62673368Y-79946525D01*
X62466525Y-80153368D01*
X62304010Y-80396589D01*
X62192068Y-80666842D01*
X62135000Y-80953740D01*
X60473622Y-80953740D01*
X60428589Y-59700000D01*
X73774428Y-59700000D01*
X73786688Y-59824482D01*
X73822998Y-59944180D01*
X73881963Y-60054494D01*
X73961315Y-60151185D01*
X74058006Y-60230537D01*
X74168320Y-60289502D01*
X74288018Y-60325812D01*
X74412500Y-60338072D01*
X74789250Y-60335000D01*
X74948000Y-60176250D01*
X74948000Y-58927000D01*
X75202000Y-58927000D01*
X75202000Y-60176250D01*
X75360750Y-60335000D01*
X75737500Y-60338072D01*
X75861982Y-60325812D01*
X75981680Y-60289502D01*
X76091994Y-60230537D01*
X76188685Y-60151185D01*
X76268037Y-60054494D01*
X76327002Y-59944180D01*
X76363312Y-59824482D01*
X76375572Y-59700000D01*
X76372500Y-59085750D01*
X76213750Y-58927000D01*
X75202000Y-58927000D01*
X74948000Y-58927000D01*
X73936250Y-58927000D01*
X73777500Y-59085750D01*
X73774428Y-59700000D01*
X60428589Y-59700000D01*
X60424776Y-57900000D01*
X73774428Y-57900000D01*
X73777500Y-58514250D01*
X73936250Y-58673000D01*
X74948000Y-58673000D01*
X74948000Y-57423750D01*
X75202000Y-57423750D01*
X75202000Y-58673000D01*
X76213750Y-58673000D01*
X76372500Y-58514250D01*
X76375572Y-57900000D01*
X76363312Y-57775518D01*
X76327002Y-57655820D01*
X76268037Y-57545506D01*
X76188685Y-57448815D01*
X76091994Y-57369463D01*
X75981680Y-57310498D01*
X75861982Y-57274188D01*
X75737500Y-57261928D01*
X75360750Y-57265000D01*
X75202000Y-57423750D01*
X74948000Y-57423750D01*
X74789250Y-57265000D01*
X74412500Y-57261928D01*
X74288018Y-57274188D01*
X74168320Y-57310498D01*
X74058006Y-57369463D01*
X73961315Y-57448815D01*
X73881963Y-57545506D01*
X73822998Y-57655820D01*
X73786688Y-57775518D01*
X73774428Y-57900000D01*
X60424776Y-57900000D01*
X60408984Y-50447360D01*
X62058760Y-50447360D01*
X62058760Y-50739880D01*
X62115828Y-51026778D01*
X62227770Y-51297031D01*
X62390285Y-51540252D01*
X62597128Y-51747095D01*
X62741588Y-51843620D01*
X62597128Y-51940145D01*
X62390285Y-52146988D01*
X62227770Y-52390209D01*
X62115828Y-52660462D01*
X62058760Y-52947360D01*
X62058760Y-53239880D01*
X62115828Y-53526778D01*
X62227770Y-53797031D01*
X62390285Y-54040252D01*
X62597128Y-54247095D01*
X62840349Y-54409610D01*
X63110602Y-54521552D01*
X63397500Y-54578620D01*
X63690020Y-54578620D01*
X63976918Y-54521552D01*
X64247171Y-54409610D01*
X64490392Y-54247095D01*
X64697235Y-54040252D01*
X64859750Y-53797031D01*
X64971692Y-53526778D01*
X65028760Y-53239880D01*
X65028760Y-52947360D01*
X64971692Y-52660462D01*
X64902585Y-52493620D01*
X68985688Y-52493620D01*
X68985688Y-53693620D01*
X69002752Y-53866874D01*
X69053288Y-54033470D01*
X69135355Y-54187006D01*
X69245798Y-54321582D01*
X69380374Y-54432025D01*
X69533910Y-54514092D01*
X69700506Y-54564628D01*
X69873760Y-54581692D01*
X70169120Y-54581692D01*
X70413046Y-54655686D01*
X70645896Y-54678620D01*
X77415000Y-54678620D01*
X77415000Y-57346979D01*
X77294113Y-57411595D01*
X77159538Y-57522038D01*
X77049095Y-57656613D01*
X76967028Y-57810149D01*
X76916492Y-57976745D01*
X76899428Y-58149999D01*
X76899428Y-59450001D01*
X76916492Y-59623255D01*
X76967028Y-59789851D01*
X77049095Y-59943387D01*
X77159538Y-60077962D01*
X77294113Y-60188405D01*
X77415000Y-60253021D01*
X77415001Y-66016891D01*
X77413460Y-66017358D01*
X77303146Y-66076323D01*
X77206455Y-66155675D01*
X77127103Y-66252366D01*
X77068138Y-66362680D01*
X77031828Y-66482378D01*
X77019568Y-66606860D01*
X77019568Y-71106860D01*
X77031828Y-71231342D01*
X77068138Y-71351040D01*
X77127103Y-71461354D01*
X77206455Y-71558045D01*
X77303146Y-71637397D01*
X77413460Y-71696362D01*
X77533158Y-71732672D01*
X77657640Y-71744932D01*
X80157640Y-71744932D01*
X80282122Y-71732672D01*
X80401820Y-71696362D01*
X80512134Y-71637397D01*
X80608825Y-71558045D01*
X80688177Y-71461354D01*
X80747142Y-71351040D01*
X80783452Y-71231342D01*
X80795712Y-71106860D01*
X80795712Y-66606860D01*
X80783452Y-66482378D01*
X80747142Y-66362680D01*
X80688177Y-66252366D01*
X80608825Y-66155675D01*
X80585000Y-66136122D01*
X80585000Y-52477864D01*
X80592669Y-52400000D01*
X80562066Y-52089286D01*
X80560693Y-52084760D01*
X80471434Y-51790512D01*
X80438072Y-51728096D01*
X80438072Y-51150000D01*
X80421008Y-50976746D01*
X80370472Y-50810150D01*
X80288405Y-50656614D01*
X80177962Y-50522038D01*
X80043386Y-50411595D01*
X79889850Y-50329528D01*
X79723254Y-50278992D01*
X79550000Y-50261928D01*
X78450000Y-50261928D01*
X78276746Y-50278992D01*
X78110150Y-50329528D01*
X77956614Y-50411595D01*
X77822038Y-50522038D01*
X77711595Y-50656614D01*
X77629528Y-50810150D01*
X77578992Y-50976746D01*
X77561928Y-51150000D01*
X77561928Y-51508620D01*
X72149574Y-51508620D01*
X72275622Y-51329228D01*
X72394117Y-51061113D01*
X72415236Y-50950510D01*
X72293915Y-50720620D01*
X70850760Y-50720620D01*
X70850760Y-50740620D01*
X70596760Y-50740620D01*
X70596760Y-50720620D01*
X69153605Y-50720620D01*
X69032284Y-50950510D01*
X69053403Y-51061113D01*
X69171898Y-51329228D01*
X69340423Y-51569074D01*
X69479804Y-51702068D01*
X69380374Y-51755215D01*
X69245798Y-51865658D01*
X69135355Y-52000234D01*
X69053288Y-52153770D01*
X69002752Y-52320366D01*
X68985688Y-52493620D01*
X64902585Y-52493620D01*
X64859750Y-52390209D01*
X64697235Y-52146988D01*
X64490392Y-51940145D01*
X64345932Y-51843620D01*
X64490392Y-51747095D01*
X64697235Y-51540252D01*
X64859750Y-51297031D01*
X64971692Y-51026778D01*
X65028760Y-50739880D01*
X65028760Y-50447360D01*
X64986863Y-50236730D01*
X69032284Y-50236730D01*
X69153605Y-50466620D01*
X70596760Y-50466620D01*
X70596760Y-49262124D01*
X70850760Y-49262124D01*
X70850760Y-50466620D01*
X72293915Y-50466620D01*
X72415236Y-50236730D01*
X72394117Y-50126127D01*
X72275622Y-49858012D01*
X72107097Y-49618166D01*
X71983257Y-49500000D01*
X77561928Y-49500000D01*
X77574188Y-49624482D01*
X77610498Y-49744180D01*
X77669463Y-49854494D01*
X77748815Y-49951185D01*
X77845506Y-50030537D01*
X77955820Y-50089502D01*
X78075518Y-50125812D01*
X78200000Y-50138072D01*
X78714250Y-50135000D01*
X78873000Y-49976250D01*
X78873000Y-48127000D01*
X79127000Y-48127000D01*
X79127000Y-49976250D01*
X79285750Y-50135000D01*
X79800000Y-50138072D01*
X79924482Y-50125812D01*
X80044180Y-50089502D01*
X80154494Y-50030537D01*
X80251185Y-49951185D01*
X80330537Y-49854494D01*
X80389502Y-49744180D01*
X80425812Y-49624482D01*
X80438072Y-49500000D01*
X80435000Y-48285750D01*
X80276250Y-48127000D01*
X79127000Y-48127000D01*
X78873000Y-48127000D01*
X77723750Y-48127000D01*
X77565000Y-48285750D01*
X77561928Y-49500000D01*
X71983257Y-49500000D01*
X71895019Y-49415806D01*
X71647537Y-49258709D01*
X71374162Y-49152912D01*
X71085400Y-49102480D01*
X70850760Y-49262124D01*
X70596760Y-49262124D01*
X70362120Y-49102480D01*
X70073358Y-49152912D01*
X69799983Y-49258709D01*
X69552501Y-49415806D01*
X69340423Y-49618166D01*
X69171898Y-49858012D01*
X69053403Y-50126127D01*
X69032284Y-50236730D01*
X64986863Y-50236730D01*
X64971692Y-50160462D01*
X64859750Y-49890209D01*
X64697235Y-49646988D01*
X64490392Y-49440145D01*
X64247171Y-49277630D01*
X63976918Y-49165688D01*
X63690020Y-49108620D01*
X63397500Y-49108620D01*
X63110602Y-49165688D01*
X62840349Y-49277630D01*
X62597128Y-49440145D01*
X62390285Y-49646988D01*
X62227770Y-49890209D01*
X62115828Y-50160462D01*
X62058760Y-50447360D01*
X60408984Y-50447360D01*
X60400621Y-46500000D01*
X77561928Y-46500000D01*
X77565000Y-47714250D01*
X77723750Y-47873000D01*
X78873000Y-47873000D01*
X78873000Y-46023750D01*
X79127000Y-46023750D01*
X79127000Y-47873000D01*
X80276250Y-47873000D01*
X80435000Y-47714250D01*
X80438072Y-46500000D01*
X80425812Y-46375518D01*
X80389502Y-46255820D01*
X80330537Y-46145506D01*
X80251185Y-46048815D01*
X80154494Y-45969463D01*
X80044180Y-45910498D01*
X79924482Y-45874188D01*
X79800000Y-45861928D01*
X79285750Y-45865000D01*
X79127000Y-46023750D01*
X78873000Y-46023750D01*
X78714250Y-45865000D01*
X78200000Y-45861928D01*
X78075518Y-45874188D01*
X77955820Y-45910498D01*
X77845506Y-45969463D01*
X77748815Y-46048815D01*
X77669463Y-46145506D01*
X77610498Y-46255820D01*
X77574188Y-46375518D01*
X77561928Y-46500000D01*
X60400621Y-46500000D01*
X60384419Y-38853980D01*
X88638297Y-38853980D01*
X88590120Y-87553674D01*
%TA.AperFunction,Conductor*%
D24*
G36*
X88590120Y-87553674D02*
G01*
X88592536Y-87578453D01*
X88599739Y-87602285D01*
X88611454Y-87624253D01*
X88627229Y-87643514D01*
X88646458Y-87659327D01*
X88668403Y-87671085D01*
X88692220Y-87678335D01*
X88717120Y-87680800D01*
X101062324Y-87680800D01*
X101062324Y-91482147D01*
X101013267Y-91555566D01*
X100859864Y-91925913D01*
X100781660Y-92319070D01*
X100781660Y-92719930D01*
X100859864Y-93113087D01*
X101013267Y-93483434D01*
X101235973Y-93816737D01*
X101519423Y-94100187D01*
X101852726Y-94322893D01*
X102223073Y-94476296D01*
X102616230Y-94554500D01*
X103017090Y-94554500D01*
X103410247Y-94476296D01*
X103780594Y-94322893D01*
X104113897Y-94100187D01*
X104397347Y-93816737D01*
X104620053Y-93483434D01*
X104664967Y-93375000D01*
X114208268Y-93375000D01*
X114208268Y-94625000D01*
X114225332Y-94798254D01*
X114275868Y-94964850D01*
X114357935Y-95118386D01*
X114468378Y-95252962D01*
X114602954Y-95363405D01*
X114756490Y-95445472D01*
X114923086Y-95496008D01*
X115096340Y-95513072D01*
X115896340Y-95513072D01*
X116069594Y-95496008D01*
X116236190Y-95445472D01*
X116389726Y-95363405D01*
X116524302Y-95252962D01*
X116634745Y-95118386D01*
X116716812Y-94964850D01*
X116767348Y-94798254D01*
X116784412Y-94625000D01*
X116784412Y-93375000D01*
X116767348Y-93201746D01*
X116716812Y-93035150D01*
X116634745Y-92881614D01*
X116524302Y-92747038D01*
X116389726Y-92636595D01*
X116236190Y-92554528D01*
X116069594Y-92503992D01*
X115896340Y-92486928D01*
X115096340Y-92486928D01*
X114923086Y-92503992D01*
X114756490Y-92554528D01*
X114602954Y-92636595D01*
X114468378Y-92747038D01*
X114357935Y-92881614D01*
X114275868Y-93035150D01*
X114225332Y-93201746D01*
X114208268Y-93375000D01*
X104664967Y-93375000D01*
X104773456Y-93113087D01*
X104851660Y-92719930D01*
X104851660Y-92319070D01*
X104773456Y-91925913D01*
X104620053Y-91555566D01*
X104397347Y-91222263D01*
X104332323Y-91157239D01*
X104332323Y-90280060D01*
X114208268Y-90280060D01*
X114220528Y-90404542D01*
X114256838Y-90524240D01*
X114315803Y-90634554D01*
X114395155Y-90731245D01*
X114491846Y-90810597D01*
X114602160Y-90869562D01*
X114721858Y-90905872D01*
X114846340Y-90918132D01*
X115223090Y-90915060D01*
X115381840Y-90756310D01*
X115381840Y-89507060D01*
X115635840Y-89507060D01*
X115635840Y-90756310D01*
X115794590Y-90915060D01*
X116171340Y-90918132D01*
X116295822Y-90905872D01*
X116415520Y-90869562D01*
X116525834Y-90810597D01*
X116622525Y-90731245D01*
X116701877Y-90634554D01*
X116760842Y-90524240D01*
X116797152Y-90404542D01*
X116809412Y-90280060D01*
X116806340Y-89665810D01*
X116647590Y-89507060D01*
X115635840Y-89507060D01*
X115381840Y-89507060D01*
X114370090Y-89507060D01*
X114211340Y-89665810D01*
X114208268Y-90280060D01*
X104332323Y-90280060D01*
X104332323Y-88480060D01*
X114208268Y-88480060D01*
X114211340Y-89094310D01*
X114370090Y-89253060D01*
X115381840Y-89253060D01*
X115381840Y-88003810D01*
X115635840Y-88003810D01*
X115635840Y-89253060D01*
X116647590Y-89253060D01*
X116806340Y-89094310D01*
X116809412Y-88480060D01*
X116797152Y-88355578D01*
X116760842Y-88235880D01*
X116701877Y-88125566D01*
X116622525Y-88028875D01*
X116525834Y-87949523D01*
X116415520Y-87890558D01*
X116295822Y-87854248D01*
X116171340Y-87841988D01*
X115794590Y-87845060D01*
X115635840Y-88003810D01*
X115381840Y-88003810D01*
X115223090Y-87845060D01*
X114846340Y-87841988D01*
X114721858Y-87854248D01*
X114602160Y-87890558D01*
X114491846Y-87949523D01*
X114395155Y-88028875D01*
X114315803Y-88125566D01*
X114256838Y-88235880D01*
X114220528Y-88355578D01*
X114208268Y-88480060D01*
X104332323Y-88480060D01*
X104332323Y-87680800D01*
X117498841Y-87680800D01*
X117498841Y-88217292D01*
X117482935Y-88236673D01*
X117400868Y-88390209D01*
X117350332Y-88556805D01*
X117333268Y-88730059D01*
X117333268Y-90030061D01*
X117350332Y-90203315D01*
X117400868Y-90369911D01*
X117482935Y-90523447D01*
X117593378Y-90658022D01*
X117665000Y-90716801D01*
X117665001Y-92667742D01*
X117568378Y-92747038D01*
X117457935Y-92881614D01*
X117375868Y-93035150D01*
X117325332Y-93201746D01*
X117308268Y-93375000D01*
X117308268Y-94625000D01*
X117325332Y-94798254D01*
X117375868Y-94964850D01*
X117457935Y-95118386D01*
X117568378Y-95252962D01*
X117702954Y-95363405D01*
X117856490Y-95445472D01*
X118023086Y-95496008D01*
X118196340Y-95513072D01*
X118996340Y-95513072D01*
X119169594Y-95496008D01*
X119336190Y-95445472D01*
X119489726Y-95363405D01*
X119624302Y-95252962D01*
X119734745Y-95118386D01*
X119816812Y-94964850D01*
X119830393Y-94920080D01*
X120365947Y-94920080D01*
X120379528Y-94964850D01*
X120461595Y-95118386D01*
X120572038Y-95252962D01*
X120706614Y-95363405D01*
X120860150Y-95445472D01*
X121026746Y-95496008D01*
X121200000Y-95513072D01*
X122000000Y-95513072D01*
X122173254Y-95496008D01*
X122339850Y-95445472D01*
X122493386Y-95363405D01*
X122627962Y-95252962D01*
X122738405Y-95118386D01*
X122820472Y-94964850D01*
X122847727Y-94875000D01*
X123411928Y-94875000D01*
X123424188Y-94999482D01*
X123460498Y-95119180D01*
X123519463Y-95229494D01*
X123598815Y-95326185D01*
X123695506Y-95405537D01*
X123805820Y-95464502D01*
X123925518Y-95500812D01*
X124050000Y-95513072D01*
X124414250Y-95510000D01*
X124573000Y-95351250D01*
X124573000Y-94127000D01*
X124827000Y-94127000D01*
X124827000Y-95351250D01*
X124985750Y-95510000D01*
X125350000Y-95513072D01*
X125474482Y-95500812D01*
X125594180Y-95464502D01*
X125704494Y-95405537D01*
X125801185Y-95326185D01*
X125880537Y-95229494D01*
X125939502Y-95119180D01*
X125975812Y-94999482D01*
X125988072Y-94875000D01*
X125985000Y-94285750D01*
X125826250Y-94127000D01*
X124827000Y-94127000D01*
X124573000Y-94127000D01*
X123573750Y-94127000D01*
X123415000Y-94285750D01*
X123411928Y-94875000D01*
X122847727Y-94875000D01*
X122871008Y-94798254D01*
X122888072Y-94625000D01*
X122888072Y-93375000D01*
X122871008Y-93201746D01*
X122847728Y-93125000D01*
X123411928Y-93125000D01*
X123415000Y-93714250D01*
X123573750Y-93873000D01*
X124573000Y-93873000D01*
X124573000Y-92648750D01*
X124827000Y-92648750D01*
X124827000Y-93873000D01*
X125826250Y-93873000D01*
X125985000Y-93714250D01*
X125988072Y-93125000D01*
X125975812Y-93000518D01*
X125939502Y-92880820D01*
X125880537Y-92770506D01*
X125801185Y-92673815D01*
X125704494Y-92594463D01*
X125594180Y-92535498D01*
X125474482Y-92499188D01*
X125350000Y-92486928D01*
X124985750Y-92490000D01*
X124827000Y-92648750D01*
X124573000Y-92648750D01*
X124414250Y-92490000D01*
X124050000Y-92486928D01*
X123925518Y-92499188D01*
X123805820Y-92535498D01*
X123695506Y-92594463D01*
X123598815Y-92673815D01*
X123519463Y-92770506D01*
X123460498Y-92880820D01*
X123424188Y-93000518D01*
X123411928Y-93125000D01*
X122847728Y-93125000D01*
X122820472Y-93035150D01*
X122738405Y-92881614D01*
X122627962Y-92747038D01*
X122493386Y-92636595D01*
X122339850Y-92554528D01*
X122173254Y-92503992D01*
X122000000Y-92486928D01*
X121200000Y-92486928D01*
X121026746Y-92503992D01*
X120860150Y-92554528D01*
X120706614Y-92636595D01*
X120572038Y-92747038D01*
X120461595Y-92881614D01*
X120379528Y-93035150D01*
X120374999Y-93050080D01*
X119821341Y-93050080D01*
X119816812Y-93035150D01*
X119734745Y-92881614D01*
X119624302Y-92747038D01*
X119535000Y-92673750D01*
X119535000Y-90770992D01*
X119539727Y-90768465D01*
X119674302Y-90658022D01*
X119784745Y-90523447D01*
X119866812Y-90369911D01*
X119917348Y-90203315D01*
X119934412Y-90030061D01*
X119934412Y-88730059D01*
X119917348Y-88556805D01*
X119866812Y-88390209D01*
X119784745Y-88236673D01*
X119768840Y-88217293D01*
X119768840Y-87680800D01*
X138000000Y-87680800D01*
X138024776Y-87678360D01*
X138048601Y-87671133D01*
X138070557Y-87659397D01*
X138089803Y-87643603D01*
X138105597Y-87624357D01*
X138117333Y-87602401D01*
X138124560Y-87578576D01*
X138126999Y-87554293D01*
X138315699Y-38903133D01*
X138313355Y-38878347D01*
X138306220Y-38854495D01*
X138305947Y-38853980D01*
X145574277Y-38853980D01*
X145711181Y-103467300D01*
X60521323Y-103467300D01*
X60510799Y-98500000D01*
X75361928Y-98500000D01*
X75374188Y-98624482D01*
X75410498Y-98744180D01*
X75469463Y-98854494D01*
X75548815Y-98951185D01*
X75645506Y-99030537D01*
X75755820Y-99089502D01*
X75875518Y-99125812D01*
X76000000Y-99138072D01*
X76514250Y-99135000D01*
X76673000Y-98976250D01*
X76673000Y-97127000D01*
X76927000Y-97127000D01*
X76927000Y-98976250D01*
X77085750Y-99135000D01*
X77600000Y-99138072D01*
X77724482Y-99125812D01*
X77844180Y-99089502D01*
X77954494Y-99030537D01*
X78051185Y-98951185D01*
X78130537Y-98854494D01*
X78189502Y-98744180D01*
X78225812Y-98624482D01*
X78238072Y-98500000D01*
X78235000Y-97285750D01*
X78076250Y-97127000D01*
X76927000Y-97127000D01*
X76673000Y-97127000D01*
X75523750Y-97127000D01*
X75365000Y-97285750D01*
X75361928Y-98500000D01*
X60510799Y-98500000D01*
X60504443Y-95500000D01*
X75361928Y-95500000D01*
X75365000Y-96714250D01*
X75523750Y-96873000D01*
X76673000Y-96873000D01*
X76673000Y-95023750D01*
X76927000Y-95023750D01*
X76927000Y-96873000D01*
X78076250Y-96873000D01*
X78235000Y-96714250D01*
X78238072Y-95500000D01*
X78225812Y-95375518D01*
X78189502Y-95255820D01*
X78130537Y-95145506D01*
X78051185Y-95048815D01*
X77954494Y-94969463D01*
X77844180Y-94910498D01*
X77724482Y-94874188D01*
X77600000Y-94861928D01*
X77085750Y-94865000D01*
X76927000Y-95023750D01*
X76673000Y-95023750D01*
X76514250Y-94865000D01*
X76000000Y-94861928D01*
X75875518Y-94874188D01*
X75755820Y-94910498D01*
X75645506Y-94969463D01*
X75548815Y-95048815D01*
X75469463Y-95145506D01*
X75410498Y-95255820D01*
X75374188Y-95375518D01*
X75361928Y-95500000D01*
X60504443Y-95500000D01*
X60473622Y-80953740D01*
X62135000Y-80953740D01*
X62135000Y-81246260D01*
X62192068Y-81533158D01*
X62304010Y-81803411D01*
X62466525Y-82046632D01*
X62673368Y-82253475D01*
X62817828Y-82350000D01*
X62673368Y-82446525D01*
X62466525Y-82653368D01*
X62304010Y-82896589D01*
X62192068Y-83166842D01*
X62135000Y-83453740D01*
X62135000Y-83746260D01*
X62192068Y-84033158D01*
X62304010Y-84303411D01*
X62466525Y-84546632D01*
X62673368Y-84753475D01*
X62916589Y-84915990D01*
X63186842Y-85027932D01*
X63473740Y-85085000D01*
X63766260Y-85085000D01*
X64053158Y-85027932D01*
X64323411Y-84915990D01*
X64485003Y-84808018D01*
X64485002Y-91192146D01*
X64477334Y-91270002D01*
X64485002Y-91347858D01*
X64485002Y-91347865D01*
X64496620Y-91465825D01*
X64507936Y-91580716D01*
X64564298Y-91766517D01*
X64598568Y-91879489D01*
X64745746Y-92154840D01*
X64943815Y-92396189D01*
X65004299Y-92445827D01*
X65934295Y-93375822D01*
X66093511Y-93506488D01*
X66273813Y-93726187D01*
X66515161Y-93924256D01*
X66790512Y-94071434D01*
X67089286Y-94162066D01*
X67322136Y-94185000D01*
X75428057Y-94185000D01*
X75429528Y-94189850D01*
X75511595Y-94343386D01*
X75622038Y-94477962D01*
X75756614Y-94588405D01*
X75910150Y-94670472D01*
X76076746Y-94721008D01*
X76250000Y-94738072D01*
X77350000Y-94738072D01*
X77523254Y-94721008D01*
X77689850Y-94670472D01*
X77843386Y-94588405D01*
X77977962Y-94477962D01*
X78088405Y-94343386D01*
X78170472Y-94189850D01*
X78196362Y-94104500D01*
X81205878Y-94104500D01*
X81532726Y-94322893D01*
X81903073Y-94476296D01*
X82296230Y-94554500D01*
X82697090Y-94554500D01*
X83090247Y-94476296D01*
X83460594Y-94322893D01*
X83793897Y-94100187D01*
X84077347Y-93816737D01*
X84300053Y-93483434D01*
X84453456Y-93113087D01*
X84531660Y-92719930D01*
X84531660Y-92319070D01*
X84453456Y-91925913D01*
X84300053Y-91555566D01*
X84077347Y-91222263D01*
X83793897Y-90938813D01*
X83460594Y-90716107D01*
X83090247Y-90562704D01*
X82697090Y-90484500D01*
X82296230Y-90484500D01*
X81903073Y-90562704D01*
X81532726Y-90716107D01*
X81205878Y-90934500D01*
X78130036Y-90934500D01*
X78088405Y-90856614D01*
X77977962Y-90722038D01*
X77843386Y-90611595D01*
X77689850Y-90529528D01*
X77523254Y-90478992D01*
X77350000Y-90461928D01*
X76250000Y-90461928D01*
X76076746Y-90478992D01*
X75910150Y-90529528D01*
X75756614Y-90611595D01*
X75622038Y-90722038D01*
X75511595Y-90856614D01*
X75429528Y-91010150D01*
X75428057Y-91015000D01*
X68056527Y-91015000D01*
X67655002Y-90613474D01*
X67655002Y-85185000D01*
X70877864Y-85185000D01*
X71110714Y-85162066D01*
X71354640Y-85088072D01*
X71650000Y-85088072D01*
X71823254Y-85071008D01*
X71989850Y-85020472D01*
X72143386Y-84938405D01*
X72277962Y-84827962D01*
X72388405Y-84693386D01*
X72470472Y-84539850D01*
X72521008Y-84373254D01*
X72538072Y-84200000D01*
X72538072Y-83000000D01*
X72521008Y-82826746D01*
X72470472Y-82660150D01*
X72388405Y-82506614D01*
X72277962Y-82372038D01*
X72143386Y-82261595D01*
X72043956Y-82208448D01*
X72183337Y-82075454D01*
X72351862Y-81835608D01*
X72470357Y-81567493D01*
X72491476Y-81456890D01*
X72370155Y-81227000D01*
X70927000Y-81227000D01*
X70927000Y-81247000D01*
X70673000Y-81247000D01*
X70673000Y-81227000D01*
X69229845Y-81227000D01*
X69108524Y-81456890D01*
X69129643Y-81567493D01*
X69248138Y-81835608D01*
X69374186Y-82015000D01*
X67655002Y-82015000D01*
X67655002Y-80743110D01*
X69108524Y-80743110D01*
X69229845Y-80973000D01*
X70673000Y-80973000D01*
X70673000Y-79768504D01*
X70927000Y-79768504D01*
X70927000Y-80973000D01*
X72370155Y-80973000D01*
X72491476Y-80743110D01*
X72470357Y-80632507D01*
X72351862Y-80364392D01*
X72183337Y-80124546D01*
X71971259Y-79922186D01*
X71723777Y-79765089D01*
X71450402Y-79659292D01*
X71161640Y-79608860D01*
X70927000Y-79768504D01*
X70673000Y-79768504D01*
X70438360Y-79608860D01*
X70149598Y-79659292D01*
X69876223Y-79765089D01*
X69628741Y-79922186D01*
X69416663Y-80124546D01*
X69248138Y-80364392D01*
X69129643Y-80632507D01*
X69108524Y-80743110D01*
X67655002Y-80743110D01*
X67655002Y-71716248D01*
X68007640Y-71750980D01*
X68377163Y-71714585D01*
X68732487Y-71606799D01*
X69059957Y-71431763D01*
X69346985Y-71196205D01*
X69582543Y-70909177D01*
X69757579Y-70581708D01*
X69865365Y-70226384D01*
X69892640Y-69949457D01*
X69892640Y-69949456D01*
X71572640Y-69949456D01*
X71599915Y-70226383D01*
X71707701Y-70581707D01*
X71822641Y-70796745D01*
X71822640Y-76770760D01*
X71814729Y-76851080D01*
X71822640Y-76931399D01*
X71822640Y-76931401D01*
X71846297Y-77171595D01*
X71939788Y-77479794D01*
X72091609Y-77763831D01*
X72295926Y-78012794D01*
X72358327Y-78064005D01*
X93236980Y-98942659D01*
X93288186Y-99005054D01*
X93537148Y-99209371D01*
X93821185Y-99361192D01*
X94129383Y-99454683D01*
X94449900Y-99486251D01*
X94530222Y-99478340D01*
X126368501Y-99478340D01*
X126448820Y-99486251D01*
X126529139Y-99478340D01*
X126529142Y-99478340D01*
X126769336Y-99454683D01*
X127077535Y-99361192D01*
X127361572Y-99209371D01*
X127610534Y-99005054D01*
X127661744Y-98942654D01*
X128747018Y-97857381D01*
X128809414Y-97806174D01*
X129013731Y-97557212D01*
X129165552Y-97273175D01*
X129259043Y-96964976D01*
X129282700Y-96724782D01*
X129282700Y-96724780D01*
X129290611Y-96644461D01*
X129282700Y-96564141D01*
X129282700Y-94296558D01*
X129871648Y-93707610D01*
X133477164Y-93707610D01*
X133498283Y-93818213D01*
X133616778Y-94086328D01*
X133785303Y-94326174D01*
X133997381Y-94528534D01*
X134244863Y-94685631D01*
X134518238Y-94791428D01*
X134807000Y-94841860D01*
X135041640Y-94682216D01*
X135041640Y-93477720D01*
X135295640Y-93477720D01*
X135295640Y-94682216D01*
X135530280Y-94841860D01*
X135819042Y-94791428D01*
X136092417Y-94685631D01*
X136339899Y-94528534D01*
X136551977Y-94326174D01*
X136720502Y-94086328D01*
X136838997Y-93818213D01*
X136860116Y-93707610D01*
X136738795Y-93477720D01*
X135295640Y-93477720D01*
X135041640Y-93477720D01*
X133598485Y-93477720D01*
X133477164Y-93707610D01*
X129871648Y-93707610D01*
X131093540Y-92485720D01*
X133707694Y-92485720D01*
X133616778Y-92615112D01*
X133498283Y-92883227D01*
X133477164Y-92993830D01*
X133598485Y-93223720D01*
X135041640Y-93223720D01*
X135041640Y-93203720D01*
X135295640Y-93203720D01*
X135295640Y-93223720D01*
X136738795Y-93223720D01*
X136860116Y-92993830D01*
X136838997Y-92883227D01*
X136720502Y-92615112D01*
X136551977Y-92375266D01*
X136412596Y-92242272D01*
X136512026Y-92189125D01*
X136646602Y-92078682D01*
X136757045Y-91944106D01*
X136839112Y-91790570D01*
X136889648Y-91623974D01*
X136906712Y-91450720D01*
X136906712Y-90704460D01*
X140863640Y-90704460D01*
X140863640Y-90996980D01*
X140920708Y-91283878D01*
X141032650Y-91554131D01*
X141195165Y-91797352D01*
X141402008Y-92004195D01*
X141546468Y-92100720D01*
X141402008Y-92197245D01*
X141195165Y-92404088D01*
X141032650Y-92647309D01*
X140920708Y-92917562D01*
X140863640Y-93204460D01*
X140863640Y-93496980D01*
X140920708Y-93783878D01*
X141032650Y-94054131D01*
X141195165Y-94297352D01*
X141402008Y-94504195D01*
X141645229Y-94666710D01*
X141915482Y-94778652D01*
X142202380Y-94835720D01*
X142494900Y-94835720D01*
X142781798Y-94778652D01*
X143052051Y-94666710D01*
X143295272Y-94504195D01*
X143502115Y-94297352D01*
X143664630Y-94054131D01*
X143776572Y-93783878D01*
X143833640Y-93496980D01*
X143833640Y-93204460D01*
X143776572Y-92917562D01*
X143664630Y-92647309D01*
X143502115Y-92404088D01*
X143295272Y-92197245D01*
X143150812Y-92100720D01*
X143295272Y-92004195D01*
X143502115Y-91797352D01*
X143664630Y-91554131D01*
X143776572Y-91283878D01*
X143833640Y-90996980D01*
X143833640Y-90704460D01*
X143776572Y-90417562D01*
X143664630Y-90147309D01*
X143502115Y-89904088D01*
X143295272Y-89697245D01*
X143052051Y-89534730D01*
X142781798Y-89422788D01*
X142494900Y-89365720D01*
X142202380Y-89365720D01*
X141915482Y-89422788D01*
X141645229Y-89534730D01*
X141402008Y-89697245D01*
X141195165Y-89904088D01*
X141032650Y-90147309D01*
X140920708Y-90417562D01*
X140863640Y-90704460D01*
X136906712Y-90704460D01*
X136906712Y-90250720D01*
X136889648Y-90077466D01*
X136839112Y-89910870D01*
X136757045Y-89757334D01*
X136646602Y-89622758D01*
X136512026Y-89512315D01*
X136358490Y-89430248D01*
X136191894Y-89379712D01*
X136018640Y-89362648D01*
X135853069Y-89362648D01*
X135797355Y-89332868D01*
X135489156Y-89239377D01*
X135248962Y-89215720D01*
X130496622Y-89215720D01*
X130416300Y-89207809D01*
X130095783Y-89239377D01*
X129933204Y-89288695D01*
X129787585Y-89332868D01*
X129503548Y-89484689D01*
X129254586Y-89689006D01*
X129203384Y-89751396D01*
X126548386Y-92406396D01*
X126485986Y-92457606D01*
X126281669Y-92706569D01*
X126129848Y-92990606D01*
X126036357Y-93298805D01*
X126017053Y-93494806D01*
X126004789Y-93619320D01*
X126012700Y-93699640D01*
X126012701Y-95967221D01*
X125771582Y-96208340D01*
X95127139Y-96208340D01*
X75092640Y-76173842D01*
X75092640Y-70796744D01*
X75207579Y-70581708D01*
X75315365Y-70226384D01*
X75342640Y-69949457D01*
X75342640Y-67764263D01*
X75315365Y-67487336D01*
X75207579Y-67132012D01*
X75032543Y-66804543D01*
X74796985Y-66517515D01*
X74509957Y-66281957D01*
X74182488Y-66106921D01*
X73827164Y-65999135D01*
X73457640Y-65962740D01*
X73088117Y-65999135D01*
X72732793Y-66106921D01*
X72405324Y-66281957D01*
X72118296Y-66517515D01*
X71882738Y-66804543D01*
X71707702Y-67132012D01*
X71599916Y-67487336D01*
X71572641Y-67764263D01*
X71572640Y-69949456D01*
X69892640Y-69949456D01*
X69892640Y-67764263D01*
X69865365Y-67487336D01*
X69757579Y-67132012D01*
X69582543Y-66804543D01*
X69346985Y-66517515D01*
X69059957Y-66281957D01*
X68732488Y-66106921D01*
X68377164Y-65999135D01*
X68007640Y-65962740D01*
X67638117Y-65999135D01*
X67282793Y-66106921D01*
X66955324Y-66281957D01*
X66668296Y-66517515D01*
X66432738Y-66804543D01*
X66257702Y-67132012D01*
X66149916Y-67487336D01*
X66122641Y-67764263D01*
X66122641Y-68500331D01*
X65004294Y-69618678D01*
X64943816Y-69668311D01*
X64894183Y-69728789D01*
X64894180Y-69728792D01*
X64745747Y-69909659D01*
X64598568Y-70185011D01*
X64507936Y-70483784D01*
X64477334Y-70794498D01*
X64485003Y-70872364D01*
X64485002Y-79891982D01*
X64323411Y-79784010D01*
X64053158Y-79672068D01*
X63766260Y-79615000D01*
X63473740Y-79615000D01*
X63186842Y-79672068D01*
X62916589Y-79784010D01*
X62673368Y-79946525D01*
X62466525Y-80153368D01*
X62304010Y-80396589D01*
X62192068Y-80666842D01*
X62135000Y-80953740D01*
X60473622Y-80953740D01*
X60428589Y-59700000D01*
X73774428Y-59700000D01*
X73786688Y-59824482D01*
X73822998Y-59944180D01*
X73881963Y-60054494D01*
X73961315Y-60151185D01*
X74058006Y-60230537D01*
X74168320Y-60289502D01*
X74288018Y-60325812D01*
X74412500Y-60338072D01*
X74789250Y-60335000D01*
X74948000Y-60176250D01*
X74948000Y-58927000D01*
X75202000Y-58927000D01*
X75202000Y-60176250D01*
X75360750Y-60335000D01*
X75737500Y-60338072D01*
X75861982Y-60325812D01*
X75981680Y-60289502D01*
X76091994Y-60230537D01*
X76188685Y-60151185D01*
X76268037Y-60054494D01*
X76327002Y-59944180D01*
X76363312Y-59824482D01*
X76375572Y-59700000D01*
X76372500Y-59085750D01*
X76213750Y-58927000D01*
X75202000Y-58927000D01*
X74948000Y-58927000D01*
X73936250Y-58927000D01*
X73777500Y-59085750D01*
X73774428Y-59700000D01*
X60428589Y-59700000D01*
X60424776Y-57900000D01*
X73774428Y-57900000D01*
X73777500Y-58514250D01*
X73936250Y-58673000D01*
X74948000Y-58673000D01*
X74948000Y-57423750D01*
X75202000Y-57423750D01*
X75202000Y-58673000D01*
X76213750Y-58673000D01*
X76372500Y-58514250D01*
X76375572Y-57900000D01*
X76363312Y-57775518D01*
X76327002Y-57655820D01*
X76268037Y-57545506D01*
X76188685Y-57448815D01*
X76091994Y-57369463D01*
X75981680Y-57310498D01*
X75861982Y-57274188D01*
X75737500Y-57261928D01*
X75360750Y-57265000D01*
X75202000Y-57423750D01*
X74948000Y-57423750D01*
X74789250Y-57265000D01*
X74412500Y-57261928D01*
X74288018Y-57274188D01*
X74168320Y-57310498D01*
X74058006Y-57369463D01*
X73961315Y-57448815D01*
X73881963Y-57545506D01*
X73822998Y-57655820D01*
X73786688Y-57775518D01*
X73774428Y-57900000D01*
X60424776Y-57900000D01*
X60408984Y-50447360D01*
X62058760Y-50447360D01*
X62058760Y-50739880D01*
X62115828Y-51026778D01*
X62227770Y-51297031D01*
X62390285Y-51540252D01*
X62597128Y-51747095D01*
X62741588Y-51843620D01*
X62597128Y-51940145D01*
X62390285Y-52146988D01*
X62227770Y-52390209D01*
X62115828Y-52660462D01*
X62058760Y-52947360D01*
X62058760Y-53239880D01*
X62115828Y-53526778D01*
X62227770Y-53797031D01*
X62390285Y-54040252D01*
X62597128Y-54247095D01*
X62840349Y-54409610D01*
X63110602Y-54521552D01*
X63397500Y-54578620D01*
X63690020Y-54578620D01*
X63976918Y-54521552D01*
X64247171Y-54409610D01*
X64490392Y-54247095D01*
X64697235Y-54040252D01*
X64859750Y-53797031D01*
X64971692Y-53526778D01*
X65028760Y-53239880D01*
X65028760Y-52947360D01*
X64971692Y-52660462D01*
X64902585Y-52493620D01*
X68985688Y-52493620D01*
X68985688Y-53693620D01*
X69002752Y-53866874D01*
X69053288Y-54033470D01*
X69135355Y-54187006D01*
X69245798Y-54321582D01*
X69380374Y-54432025D01*
X69533910Y-54514092D01*
X69700506Y-54564628D01*
X69873760Y-54581692D01*
X70169120Y-54581692D01*
X70413046Y-54655686D01*
X70645896Y-54678620D01*
X77415000Y-54678620D01*
X77415000Y-57346979D01*
X77294113Y-57411595D01*
X77159538Y-57522038D01*
X77049095Y-57656613D01*
X76967028Y-57810149D01*
X76916492Y-57976745D01*
X76899428Y-58149999D01*
X76899428Y-59450001D01*
X76916492Y-59623255D01*
X76967028Y-59789851D01*
X77049095Y-59943387D01*
X77159538Y-60077962D01*
X77294113Y-60188405D01*
X77415000Y-60253021D01*
X77415001Y-66016891D01*
X77413460Y-66017358D01*
X77303146Y-66076323D01*
X77206455Y-66155675D01*
X77127103Y-66252366D01*
X77068138Y-66362680D01*
X77031828Y-66482378D01*
X77019568Y-66606860D01*
X77019568Y-71106860D01*
X77031828Y-71231342D01*
X77068138Y-71351040D01*
X77127103Y-71461354D01*
X77206455Y-71558045D01*
X77303146Y-71637397D01*
X77413460Y-71696362D01*
X77533158Y-71732672D01*
X77657640Y-71744932D01*
X80157640Y-71744932D01*
X80282122Y-71732672D01*
X80401820Y-71696362D01*
X80512134Y-71637397D01*
X80608825Y-71558045D01*
X80688177Y-71461354D01*
X80747142Y-71351040D01*
X80783452Y-71231342D01*
X80795712Y-71106860D01*
X80795712Y-66606860D01*
X80783452Y-66482378D01*
X80747142Y-66362680D01*
X80688177Y-66252366D01*
X80608825Y-66155675D01*
X80585000Y-66136122D01*
X80585000Y-52477864D01*
X80592669Y-52400000D01*
X80562066Y-52089286D01*
X80560693Y-52084760D01*
X80471434Y-51790512D01*
X80438072Y-51728096D01*
X80438072Y-51150000D01*
X80421008Y-50976746D01*
X80370472Y-50810150D01*
X80288405Y-50656614D01*
X80177962Y-50522038D01*
X80043386Y-50411595D01*
X79889850Y-50329528D01*
X79723254Y-50278992D01*
X79550000Y-50261928D01*
X78450000Y-50261928D01*
X78276746Y-50278992D01*
X78110150Y-50329528D01*
X77956614Y-50411595D01*
X77822038Y-50522038D01*
X77711595Y-50656614D01*
X77629528Y-50810150D01*
X77578992Y-50976746D01*
X77561928Y-51150000D01*
X77561928Y-51508620D01*
X72149574Y-51508620D01*
X72275622Y-51329228D01*
X72394117Y-51061113D01*
X72415236Y-50950510D01*
X72293915Y-50720620D01*
X70850760Y-50720620D01*
X70850760Y-50740620D01*
X70596760Y-50740620D01*
X70596760Y-50720620D01*
X69153605Y-50720620D01*
X69032284Y-50950510D01*
X69053403Y-51061113D01*
X69171898Y-51329228D01*
X69340423Y-51569074D01*
X69479804Y-51702068D01*
X69380374Y-51755215D01*
X69245798Y-51865658D01*
X69135355Y-52000234D01*
X69053288Y-52153770D01*
X69002752Y-52320366D01*
X68985688Y-52493620D01*
X64902585Y-52493620D01*
X64859750Y-52390209D01*
X64697235Y-52146988D01*
X64490392Y-51940145D01*
X64345932Y-51843620D01*
X64490392Y-51747095D01*
X64697235Y-51540252D01*
X64859750Y-51297031D01*
X64971692Y-51026778D01*
X65028760Y-50739880D01*
X65028760Y-50447360D01*
X64986863Y-50236730D01*
X69032284Y-50236730D01*
X69153605Y-50466620D01*
X70596760Y-50466620D01*
X70596760Y-49262124D01*
X70850760Y-49262124D01*
X70850760Y-50466620D01*
X72293915Y-50466620D01*
X72415236Y-50236730D01*
X72394117Y-50126127D01*
X72275622Y-49858012D01*
X72107097Y-49618166D01*
X71983257Y-49500000D01*
X77561928Y-49500000D01*
X77574188Y-49624482D01*
X77610498Y-49744180D01*
X77669463Y-49854494D01*
X77748815Y-49951185D01*
X77845506Y-50030537D01*
X77955820Y-50089502D01*
X78075518Y-50125812D01*
X78200000Y-50138072D01*
X78714250Y-50135000D01*
X78873000Y-49976250D01*
X78873000Y-48127000D01*
X79127000Y-48127000D01*
X79127000Y-49976250D01*
X79285750Y-50135000D01*
X79800000Y-50138072D01*
X79924482Y-50125812D01*
X80044180Y-50089502D01*
X80154494Y-50030537D01*
X80251185Y-49951185D01*
X80330537Y-49854494D01*
X80389502Y-49744180D01*
X80425812Y-49624482D01*
X80438072Y-49500000D01*
X80435000Y-48285750D01*
X80276250Y-48127000D01*
X79127000Y-48127000D01*
X78873000Y-48127000D01*
X77723750Y-48127000D01*
X77565000Y-48285750D01*
X77561928Y-49500000D01*
X71983257Y-49500000D01*
X71895019Y-49415806D01*
X71647537Y-49258709D01*
X71374162Y-49152912D01*
X71085400Y-49102480D01*
X70850760Y-49262124D01*
X70596760Y-49262124D01*
X70362120Y-49102480D01*
X70073358Y-49152912D01*
X69799983Y-49258709D01*
X69552501Y-49415806D01*
X69340423Y-49618166D01*
X69171898Y-49858012D01*
X69053403Y-50126127D01*
X69032284Y-50236730D01*
X64986863Y-50236730D01*
X64971692Y-50160462D01*
X64859750Y-49890209D01*
X64697235Y-49646988D01*
X64490392Y-49440145D01*
X64247171Y-49277630D01*
X63976918Y-49165688D01*
X63690020Y-49108620D01*
X63397500Y-49108620D01*
X63110602Y-49165688D01*
X62840349Y-49277630D01*
X62597128Y-49440145D01*
X62390285Y-49646988D01*
X62227770Y-49890209D01*
X62115828Y-50160462D01*
X62058760Y-50447360D01*
X60408984Y-50447360D01*
X60400621Y-46500000D01*
X77561928Y-46500000D01*
X77565000Y-47714250D01*
X77723750Y-47873000D01*
X78873000Y-47873000D01*
X78873000Y-46023750D01*
X79127000Y-46023750D01*
X79127000Y-47873000D01*
X80276250Y-47873000D01*
X80435000Y-47714250D01*
X80438072Y-46500000D01*
X80425812Y-46375518D01*
X80389502Y-46255820D01*
X80330537Y-46145506D01*
X80251185Y-46048815D01*
X80154494Y-45969463D01*
X80044180Y-45910498D01*
X79924482Y-45874188D01*
X79800000Y-45861928D01*
X79285750Y-45865000D01*
X79127000Y-46023750D01*
X78873000Y-46023750D01*
X78714250Y-45865000D01*
X78200000Y-45861928D01*
X78075518Y-45874188D01*
X77955820Y-45910498D01*
X77845506Y-45969463D01*
X77748815Y-46048815D01*
X77669463Y-46145506D01*
X77610498Y-46255820D01*
X77574188Y-46375518D01*
X77561928Y-46500000D01*
X60400621Y-46500000D01*
X60384419Y-38853980D01*
X88638297Y-38853980D01*
X88590120Y-87553674D01*
G37*
%TD.AperFunction*%
%TD*%
D23*
%TO.N,Net-(R3-Pad2)*%
X137257098Y-86756240D02*
X119768840Y-86756240D01*
X119768840Y-66354928D01*
X120790823Y-65332945D01*
X120870175Y-65236254D01*
X120929140Y-65125940D01*
X120965450Y-65006242D01*
X120977710Y-64881760D01*
X120965450Y-64757278D01*
X120929140Y-64637580D01*
X120870175Y-64527266D01*
X120790823Y-64430575D01*
X118952345Y-62592097D01*
X118855654Y-62512745D01*
X118745340Y-62453780D01*
X118625642Y-62417470D01*
X118501160Y-62405210D01*
X118376678Y-62417470D01*
X118256980Y-62453780D01*
X118146666Y-62512745D01*
X118049975Y-62592097D01*
X116211497Y-64430575D01*
X116132145Y-64527266D01*
X116073180Y-64637580D01*
X116036870Y-64757278D01*
X116024610Y-64881760D01*
X116036870Y-65006242D01*
X116073180Y-65125940D01*
X116132145Y-65236254D01*
X116211497Y-65332945D01*
X117498840Y-66620288D01*
X117498841Y-86756240D01*
X89476975Y-86756240D01*
X89517513Y-73702139D01*
X98937971Y-73702139D01*
X99151452Y-74421641D01*
X99501199Y-75085670D01*
X99973772Y-75668707D01*
X100551009Y-76148347D01*
X101210728Y-76506157D01*
X101927576Y-76728387D01*
X101973317Y-76737485D01*
X102570323Y-76645620D01*
X102570323Y-73105133D01*
X102824323Y-73105133D01*
X102824323Y-76645620D01*
X103421329Y-76737485D01*
X104140831Y-76524004D01*
X104804860Y-76174257D01*
X105387897Y-75701684D01*
X105867537Y-75124447D01*
X106225347Y-74464728D01*
X106447577Y-73747880D01*
X106456675Y-73702139D01*
X106364810Y-73105133D01*
X102824323Y-73105133D01*
X102570323Y-73105133D01*
X99029836Y-73105133D01*
X98937971Y-73702139D01*
X89517513Y-73702139D01*
X89522009Y-72254127D01*
X98937971Y-72254127D01*
X99029836Y-72851133D01*
X102570323Y-72851133D01*
X102570323Y-69310646D01*
X102824323Y-69310646D01*
X102824323Y-72851133D01*
X106364810Y-72851133D01*
X106456675Y-72254127D01*
X106243194Y-71534625D01*
X105893447Y-70870596D01*
X105420874Y-70287559D01*
X104843637Y-69807919D01*
X104183918Y-69450109D01*
X103467070Y-69227879D01*
X103421329Y-69218781D01*
X102824323Y-69310646D01*
X102570323Y-69310646D01*
X101973317Y-69218781D01*
X101253815Y-69432262D01*
X100589786Y-69782009D01*
X100006749Y-70254582D01*
X99527109Y-70831819D01*
X99169299Y-71491538D01*
X98947069Y-72208386D01*
X98937971Y-72254127D01*
X89522009Y-72254127D01*
X89569474Y-56969573D01*
X108844554Y-56969573D01*
X108844554Y-57350735D01*
X108918915Y-57724573D01*
X109064779Y-58076720D01*
X109276541Y-58393645D01*
X109546063Y-58663167D01*
X109862988Y-58874929D01*
X110215135Y-59020793D01*
X110588973Y-59095154D01*
X110970135Y-59095154D01*
X111343973Y-59020793D01*
X111696120Y-58874929D01*
X112013045Y-58663167D01*
X112282567Y-58393645D01*
X112494329Y-58076720D01*
X112640193Y-57724573D01*
X112714554Y-57350735D01*
X112714554Y-56969573D01*
X112640193Y-56595735D01*
X112494329Y-56243588D01*
X112282567Y-55926663D01*
X112013045Y-55657141D01*
X111696120Y-55445379D01*
X111343973Y-55299515D01*
X110970135Y-55225154D01*
X110588973Y-55225154D01*
X110215135Y-55299515D01*
X109862988Y-55445379D01*
X109546063Y-55657141D01*
X109276541Y-55926663D01*
X109064779Y-56243588D01*
X108918915Y-56595735D01*
X108844554Y-56969573D01*
X89569474Y-56969573D01*
X89583827Y-52347514D01*
X120292596Y-52347514D01*
X120506077Y-53067016D01*
X120855824Y-53731045D01*
X121328397Y-54314082D01*
X121905634Y-54793722D01*
X122565353Y-55151532D01*
X123282201Y-55373762D01*
X123327942Y-55382860D01*
X123924948Y-55290995D01*
X123924948Y-51750508D01*
X124178948Y-51750508D01*
X124178948Y-55290995D01*
X124775954Y-55382860D01*
X125495456Y-55169379D01*
X126159485Y-54819632D01*
X126742522Y-54347059D01*
X127222162Y-53769822D01*
X127579972Y-53110103D01*
X127802202Y-52393255D01*
X127811300Y-52347514D01*
X127719435Y-51750508D01*
X124178948Y-51750508D01*
X123924948Y-51750508D01*
X120384461Y-51750508D01*
X120292596Y-52347514D01*
X89583827Y-52347514D01*
X89588323Y-50899502D01*
X120292596Y-50899502D01*
X120384461Y-51496508D01*
X123924948Y-51496508D01*
X123924948Y-47956021D01*
X124178948Y-47956021D01*
X124178948Y-51496508D01*
X127719435Y-51496508D01*
X127811300Y-50899502D01*
X127597819Y-50180000D01*
X127248072Y-49515971D01*
X126775499Y-48932934D01*
X126198262Y-48453294D01*
X125538543Y-48095484D01*
X124821695Y-47873254D01*
X124775954Y-47864156D01*
X124178948Y-47956021D01*
X123924948Y-47956021D01*
X123327942Y-47864156D01*
X122608440Y-48077637D01*
X121944411Y-48427384D01*
X121361374Y-48899957D01*
X120881734Y-49477194D01*
X120523924Y-50136913D01*
X120301694Y-50853761D01*
X120292596Y-50899502D01*
X89588323Y-50899502D01*
X89623506Y-39570660D01*
X137472419Y-39570660D01*
X137257098Y-86756240D01*
%TA.AperFunction,Conductor*%
D24*
G36*
X137257098Y-86756240D02*
G01*
X119768840Y-86756240D01*
X119768840Y-66354928D01*
X120790823Y-65332945D01*
X120870175Y-65236254D01*
X120929140Y-65125940D01*
X120965450Y-65006242D01*
X120977710Y-64881760D01*
X120965450Y-64757278D01*
X120929140Y-64637580D01*
X120870175Y-64527266D01*
X120790823Y-64430575D01*
X118952345Y-62592097D01*
X118855654Y-62512745D01*
X118745340Y-62453780D01*
X118625642Y-62417470D01*
X118501160Y-62405210D01*
X118376678Y-62417470D01*
X118256980Y-62453780D01*
X118146666Y-62512745D01*
X118049975Y-62592097D01*
X116211497Y-64430575D01*
X116132145Y-64527266D01*
X116073180Y-64637580D01*
X116036870Y-64757278D01*
X116024610Y-64881760D01*
X116036870Y-65006242D01*
X116073180Y-65125940D01*
X116132145Y-65236254D01*
X116211497Y-65332945D01*
X117498840Y-66620288D01*
X117498841Y-86756240D01*
X89476975Y-86756240D01*
X89517513Y-73702139D01*
X98937971Y-73702139D01*
X99151452Y-74421641D01*
X99501199Y-75085670D01*
X99973772Y-75668707D01*
X100551009Y-76148347D01*
X101210728Y-76506157D01*
X101927576Y-76728387D01*
X101973317Y-76737485D01*
X102570323Y-76645620D01*
X102570323Y-73105133D01*
X102824323Y-73105133D01*
X102824323Y-76645620D01*
X103421329Y-76737485D01*
X104140831Y-76524004D01*
X104804860Y-76174257D01*
X105387897Y-75701684D01*
X105867537Y-75124447D01*
X106225347Y-74464728D01*
X106447577Y-73747880D01*
X106456675Y-73702139D01*
X106364810Y-73105133D01*
X102824323Y-73105133D01*
X102570323Y-73105133D01*
X99029836Y-73105133D01*
X98937971Y-73702139D01*
X89517513Y-73702139D01*
X89522009Y-72254127D01*
X98937971Y-72254127D01*
X99029836Y-72851133D01*
X102570323Y-72851133D01*
X102570323Y-69310646D01*
X102824323Y-69310646D01*
X102824323Y-72851133D01*
X106364810Y-72851133D01*
X106456675Y-72254127D01*
X106243194Y-71534625D01*
X105893447Y-70870596D01*
X105420874Y-70287559D01*
X104843637Y-69807919D01*
X104183918Y-69450109D01*
X103467070Y-69227879D01*
X103421329Y-69218781D01*
X102824323Y-69310646D01*
X102570323Y-69310646D01*
X101973317Y-69218781D01*
X101253815Y-69432262D01*
X100589786Y-69782009D01*
X100006749Y-70254582D01*
X99527109Y-70831819D01*
X99169299Y-71491538D01*
X98947069Y-72208386D01*
X98937971Y-72254127D01*
X89522009Y-72254127D01*
X89569474Y-56969573D01*
X108844554Y-56969573D01*
X108844554Y-57350735D01*
X108918915Y-57724573D01*
X109064779Y-58076720D01*
X109276541Y-58393645D01*
X109546063Y-58663167D01*
X109862988Y-58874929D01*
X110215135Y-59020793D01*
X110588973Y-59095154D01*
X110970135Y-59095154D01*
X111343973Y-59020793D01*
X111696120Y-58874929D01*
X112013045Y-58663167D01*
X112282567Y-58393645D01*
X112494329Y-58076720D01*
X112640193Y-57724573D01*
X112714554Y-57350735D01*
X112714554Y-56969573D01*
X112640193Y-56595735D01*
X112494329Y-56243588D01*
X112282567Y-55926663D01*
X112013045Y-55657141D01*
X111696120Y-55445379D01*
X111343973Y-55299515D01*
X110970135Y-55225154D01*
X110588973Y-55225154D01*
X110215135Y-55299515D01*
X109862988Y-55445379D01*
X109546063Y-55657141D01*
X109276541Y-55926663D01*
X109064779Y-56243588D01*
X108918915Y-56595735D01*
X108844554Y-56969573D01*
X89569474Y-56969573D01*
X89583827Y-52347514D01*
X120292596Y-52347514D01*
X120506077Y-53067016D01*
X120855824Y-53731045D01*
X121328397Y-54314082D01*
X121905634Y-54793722D01*
X122565353Y-55151532D01*
X123282201Y-55373762D01*
X123327942Y-55382860D01*
X123924948Y-55290995D01*
X123924948Y-51750508D01*
X124178948Y-51750508D01*
X124178948Y-55290995D01*
X124775954Y-55382860D01*
X125495456Y-55169379D01*
X126159485Y-54819632D01*
X126742522Y-54347059D01*
X127222162Y-53769822D01*
X127579972Y-53110103D01*
X127802202Y-52393255D01*
X127811300Y-52347514D01*
X127719435Y-51750508D01*
X124178948Y-51750508D01*
X123924948Y-51750508D01*
X120384461Y-51750508D01*
X120292596Y-52347514D01*
X89583827Y-52347514D01*
X89588323Y-50899502D01*
X120292596Y-50899502D01*
X120384461Y-51496508D01*
X123924948Y-51496508D01*
X123924948Y-47956021D01*
X124178948Y-47956021D01*
X124178948Y-51496508D01*
X127719435Y-51496508D01*
X127811300Y-50899502D01*
X127597819Y-50180000D01*
X127248072Y-49515971D01*
X126775499Y-48932934D01*
X126198262Y-48453294D01*
X125538543Y-48095484D01*
X124821695Y-47873254D01*
X124775954Y-47864156D01*
X124178948Y-47956021D01*
X123924948Y-47956021D01*
X123327942Y-47864156D01*
X122608440Y-48077637D01*
X121944411Y-48427384D01*
X121361374Y-48899957D01*
X120881734Y-49477194D01*
X120523924Y-50136913D01*
X120301694Y-50853761D01*
X120292596Y-50899502D01*
X89588323Y-50899502D01*
X89623506Y-39570660D01*
X137472419Y-39570660D01*
X137257098Y-86756240D01*
G37*
%TD.AperFunction*%
%TD*%
M02*
