%TF.GenerationSoftware,KiCad,Pcbnew,(5.1.9)-1*%
%TF.CreationDate,2022-02-17T16:54:53+01:00*%
%TF.ProjectId,Ladegeraet,4c616465-6765-4726-9165-742e6b696361,rev?*%
%TF.SameCoordinates,Original*%
%TF.FileFunction,Soldermask,Top*%
%TF.FilePolarity,Negative*%
%FSLAX46Y46*%
G04 Gerber Fmt 4.6, Leading zero omitted, Abs format (unit mm)*
G04 Created by KiCad (PCBNEW (5.1.9)-1) date 2022-02-17 16:54:53*
%MOMM*%
%LPD*%
G01*
G04 APERTURE LIST*
%ADD10C,1.700000*%
%ADD11O,2.200000X1.700000*%
%ADD12O,2.500000X4.500000*%
%ADD13R,2.500000X4.500000*%
%ADD14O,2.800000X2.800000*%
%ADD15C,2.800000*%
%ADD16C,6.350000*%
%ADD17C,2.600000*%
%ADD18C,0.100000*%
G04 APERTURE END LIST*
%TO.C,C4*%
G36*
G01*
X76250000Y-95500000D02*
X77350000Y-95500000D01*
G75*
G02*
X77600000Y-95750000I0J-250000D01*
G01*
X77600000Y-98250000D01*
G75*
G02*
X77350000Y-98500000I-250000J0D01*
G01*
X76250000Y-98500000D01*
G75*
G02*
X76000000Y-98250000I0J250000D01*
G01*
X76000000Y-95750000D01*
G75*
G02*
X76250000Y-95500000I250000J0D01*
G01*
G37*
G36*
G01*
X76250000Y-91100000D02*
X77350000Y-91100000D01*
G75*
G02*
X77600000Y-91350000I0J-250000D01*
G01*
X77600000Y-93850000D01*
G75*
G02*
X77350000Y-94100000I-250000J0D01*
G01*
X76250000Y-94100000D01*
G75*
G02*
X76000000Y-93850000I0J250000D01*
G01*
X76000000Y-91350000D01*
G75*
G02*
X76250000Y-91100000I250000J0D01*
G01*
G37*
%TD*%
%TO.C,C3*%
G36*
G01*
X79550000Y-49500000D02*
X78450000Y-49500000D01*
G75*
G02*
X78200000Y-49250000I0J250000D01*
G01*
X78200000Y-46750000D01*
G75*
G02*
X78450000Y-46500000I250000J0D01*
G01*
X79550000Y-46500000D01*
G75*
G02*
X79800000Y-46750000I0J-250000D01*
G01*
X79800000Y-49250000D01*
G75*
G02*
X79550000Y-49500000I-250000J0D01*
G01*
G37*
G36*
G01*
X79550000Y-53900000D02*
X78450000Y-53900000D01*
G75*
G02*
X78200000Y-53650000I0J250000D01*
G01*
X78200000Y-51150000D01*
G75*
G02*
X78450000Y-50900000I250000J0D01*
G01*
X79550000Y-50900000D01*
G75*
G02*
X79800000Y-51150000I0J-250000D01*
G01*
X79800000Y-53650000D01*
G75*
G02*
X79550000Y-53900000I-250000J0D01*
G01*
G37*
%TD*%
%TO.C,R2*%
G36*
G01*
X124050000Y-94625000D02*
X124050000Y-93375000D01*
G75*
G02*
X124300000Y-93125000I250000J0D01*
G01*
X125100000Y-93125000D01*
G75*
G02*
X125350000Y-93375000I0J-250000D01*
G01*
X125350000Y-94625000D01*
G75*
G02*
X125100000Y-94875000I-250000J0D01*
G01*
X124300000Y-94875000D01*
G75*
G02*
X124050000Y-94625000I0J250000D01*
G01*
G37*
G36*
G01*
X120950000Y-94625000D02*
X120950000Y-93375000D01*
G75*
G02*
X121200000Y-93125000I250000J0D01*
G01*
X122000000Y-93125000D01*
G75*
G02*
X122250000Y-93375000I0J-250000D01*
G01*
X122250000Y-94625000D01*
G75*
G02*
X122000000Y-94875000I-250000J0D01*
G01*
X121200000Y-94875000D01*
G75*
G02*
X120950000Y-94625000I0J250000D01*
G01*
G37*
%TD*%
%TO.C,R1*%
G36*
G01*
X117946340Y-94625000D02*
X117946340Y-93375000D01*
G75*
G02*
X118196340Y-93125000I250000J0D01*
G01*
X118996340Y-93125000D01*
G75*
G02*
X119246340Y-93375000I0J-250000D01*
G01*
X119246340Y-94625000D01*
G75*
G02*
X118996340Y-94875000I-250000J0D01*
G01*
X118196340Y-94875000D01*
G75*
G02*
X117946340Y-94625000I0J250000D01*
G01*
G37*
G36*
G01*
X114846340Y-94625000D02*
X114846340Y-93375000D01*
G75*
G02*
X115096340Y-93125000I250000J0D01*
G01*
X115896340Y-93125000D01*
G75*
G02*
X116146340Y-93375000I0J-250000D01*
G01*
X116146340Y-94625000D01*
G75*
G02*
X115896340Y-94875000I-250000J0D01*
G01*
X115096340Y-94875000D01*
G75*
G02*
X114846340Y-94625000I0J250000D01*
G01*
G37*
%TD*%
%TO.C,C1*%
G36*
G01*
X75737500Y-58149999D02*
X75737500Y-59450001D01*
G75*
G02*
X75487501Y-59700000I-249999J0D01*
G01*
X74662499Y-59700000D01*
G75*
G02*
X74412500Y-59450001I0J249999D01*
G01*
X74412500Y-58149999D01*
G75*
G02*
X74662499Y-57900000I249999J0D01*
G01*
X75487501Y-57900000D01*
G75*
G02*
X75737500Y-58149999I0J-249999D01*
G01*
G37*
G36*
G01*
X78862500Y-58149999D02*
X78862500Y-59450001D01*
G75*
G02*
X78612501Y-59700000I-249999J0D01*
G01*
X77787499Y-59700000D01*
G75*
G02*
X77537500Y-59450001I0J249999D01*
G01*
X77537500Y-58149999D01*
G75*
G02*
X77787499Y-57900000I249999J0D01*
G01*
X78612501Y-57900000D01*
G75*
G02*
X78862500Y-58149999I0J-249999D01*
G01*
G37*
%TD*%
%TO.C,C2*%
G36*
G01*
X116171340Y-88730059D02*
X116171340Y-90030061D01*
G75*
G02*
X115921341Y-90280060I-249999J0D01*
G01*
X115096339Y-90280060D01*
G75*
G02*
X114846340Y-90030061I0J249999D01*
G01*
X114846340Y-88730059D01*
G75*
G02*
X115096339Y-88480060I249999J0D01*
G01*
X115921341Y-88480060D01*
G75*
G02*
X116171340Y-88730059I0J-249999D01*
G01*
G37*
G36*
G01*
X119296340Y-88730059D02*
X119296340Y-90030061D01*
G75*
G02*
X119046341Y-90280060I-249999J0D01*
G01*
X118221339Y-90280060D01*
G75*
G02*
X117971340Y-90030061I0J249999D01*
G01*
X117971340Y-88730059D01*
G75*
G02*
X118221339Y-88480060I249999J0D01*
G01*
X119046341Y-88480060D01*
G75*
G02*
X119296340Y-88730059I0J-249999D01*
G01*
G37*
%TD*%
D10*
%TO.C,J3*%
X142348640Y-93350720D03*
X142348640Y-90850720D03*
D11*
X135168640Y-93350720D03*
G36*
G01*
X134068640Y-91450720D02*
X134068640Y-90250720D01*
G75*
G02*
X134318640Y-90000720I250000J0D01*
G01*
X136018640Y-90000720D01*
G75*
G02*
X136268640Y-90250720I0J-250000D01*
G01*
X136268640Y-91450720D01*
G75*
G02*
X136018640Y-91700720I-250000J0D01*
G01*
X134318640Y-91700720D01*
G75*
G02*
X134068640Y-91450720I0J250000D01*
G01*
G37*
%TD*%
D10*
%TO.C,J2*%
X63620000Y-81100000D03*
X63620000Y-83600000D03*
D11*
X70800000Y-81100000D03*
G36*
G01*
X71900000Y-83000000D02*
X71900000Y-84200000D01*
G75*
G02*
X71650000Y-84450000I-250000J0D01*
G01*
X69950000Y-84450000D01*
G75*
G02*
X69700000Y-84200000I0J250000D01*
G01*
X69700000Y-83000000D01*
G75*
G02*
X69950000Y-82750000I250000J0D01*
G01*
X71650000Y-82750000D01*
G75*
G02*
X71900000Y-83000000I0J-250000D01*
G01*
G37*
%TD*%
D10*
%TO.C,J1*%
X63543760Y-50593620D03*
X63543760Y-53093620D03*
D11*
X70723760Y-50593620D03*
G36*
G01*
X71823760Y-52493620D02*
X71823760Y-53693620D01*
G75*
G02*
X71573760Y-53943620I-250000J0D01*
G01*
X69873760Y-53943620D01*
G75*
G02*
X69623760Y-53693620I0J250000D01*
G01*
X69623760Y-52493620D01*
G75*
G02*
X69873760Y-52243620I250000J0D01*
G01*
X71573760Y-52243620D01*
G75*
G02*
X71823760Y-52493620I0J-250000D01*
G01*
G37*
%TD*%
D12*
%TO.C,D1*%
X68007640Y-68856860D03*
X73457640Y-68856860D03*
D13*
X78907640Y-68856860D03*
%TD*%
D14*
%TO.C,R3*%
X102816660Y-92519500D03*
D15*
X82496660Y-92519500D03*
%TD*%
D16*
%TO.C,U1*%
X102697323Y-72978133D03*
X124051948Y-51623508D03*
D17*
X110779554Y-57160154D03*
D18*
G36*
X118501160Y-63043282D02*
G01*
X120339638Y-64881760D01*
X118501160Y-66720238D01*
X116662682Y-64881760D01*
X118501160Y-63043282D01*
G37*
%TD*%
M02*
